<svg width="47" height="28" viewBox="0 0 47 28" fill="none" xmlns="http://www.w3.org/2000/svg">
<g clip-path="url(#clip0_341_10552)">
<g clip-path="url(#clip1_341_10552)">
<path d="M44.6641 15.9456C44.6548 15.9555 44.6467 15.9638 44.6346 15.9755L35.6411 24.7038C34.7821 25.5394 33.6372 26.0168 32.439 26.039L4.7846 26.5539C4.42483 26.5606 4.06737 26.495 3.73344 26.361C3.3995 26.227 3.09591 26.0272 2.84066 25.7736C2.58541 25.5199 2.38371 25.2176 2.24754 24.8845C2.11137 24.5515 2.0435 24.1944 2.04796 23.8346L2.28485 4.50905C2.28799 4.15628 2.36115 3.80766 2.50008 3.48339C2.639 3.15912 2.84093 2.86566 3.09415 2.62004L3.1248 2.59013C3.38549 2.34178 3.69379 2.14882 4.03109 2.02289C4.3684 1.89695 4.72772 1.84065 5.08738 1.85739L32.7216 3.04953C33.9189 3.10118 35.0516 3.60664 35.8897 4.46323L44.6947 13.4386C45.0066 13.7834 45.1767 14.2332 45.171 14.6981C45.1653 15.1629 44.9843 15.6085 44.6641 15.9456ZM36.1456 12.3485C35.7028 12.3431 35.2683 12.4691 34.8971 12.7106C34.5258 12.9521 34.2346 13.2983 34.0601 13.7054C33.8856 14.1124 33.8358 14.5621 33.9168 14.9974C33.9979 15.4328 34.2063 15.8344 34.5156 16.1514C34.8249 16.4683 35.2212 16.6865 35.6545 16.7782C36.0877 16.8699 36.5385 16.831 36.9497 16.6666C37.3609 16.5021 37.7141 16.2194 37.9646 15.8542C38.2151 15.489 38.3517 15.0577 38.3571 14.6149C38.3607 14.3209 38.3064 14.029 38.1972 13.756C38.088 13.483 37.9261 13.2341 37.7208 13.0237C37.5154 12.8132 37.2706 12.6453 37.0003 12.5295C36.7301 12.4136 36.4396 12.3521 36.1456 12.3485Z" fill="#C92027"/>
</g>
</g>
<defs>
<clipPath id="clip0_341_10552">
<rect width="47" height="28" fill="white" transform="matrix(-1 0 0 1 47 0)"/>
</clipPath>
<clipPath id="clip1_341_10552">
<rect width="42.9913" height="42.9913" fill="white" transform="matrix(0.715712 -0.698395 -0.698395 -0.715712 20.2305 44.7944)"/>
</clipPath>
</defs>
</svg>
