<svg width="24" height="24" viewBox="0 0 24 24" fill="none" xmlns="http://www.w3.org/2000/svg">
<mask id="mask0_42_5126" style="mask-type:alpha" maskUnits="userSpaceOnUse" x="0" y="0" width="24" height="24">
<rect width="24" height="24" fill="#D9D9D9"/>
</mask>
<g mask="url(#mask0_42_5126)">
<path d="M18.875 8V6H16.875V4.5H18.875V2.5H20.375V4.5H22.375V6H20.375V8H18.875ZM3.175 21.5C2.675 21.5 2.25 21.325 1.9 20.975C1.55 20.625 1.375 20.2 1.375 19.7V8.3C1.375 7.8 1.55 7.375 1.9 7.025C2.25 6.675 2.675 6.5 3.175 6.5H6.225L8.075 4.5H14.125V6H8.75L6.9 8H3.175C3.09167 8 3.021 8.029 2.963 8.087C2.90433 8.14567 2.875 8.21667 2.875 8.3V19.7C2.875 19.7833 2.90433 19.8543 2.963 19.913C3.021 19.971 3.09167 20 3.175 20H18.575C18.6583 20 18.7293 19.971 18.788 19.913C18.846 19.8543 18.875 19.7833 18.875 19.7V10.75H20.375V19.7C20.375 20.2 20.2 20.625 19.85 20.975C19.5 21.325 19.075 21.5 18.575 21.5H3.175ZM10.875 18.125C12.025 18.125 13 17.725 13.8 16.925C14.6 16.125 15 15.15 15 14C15 12.85 14.6 11.875 13.8 11.075C13 10.275 12.025 9.875 10.875 9.875C9.725 9.875 8.75 10.275 7.95 11.075C7.15 11.875 6.75 12.85 6.75 14C6.75 15.15 7.15 16.125 7.95 16.925C8.75 17.725 9.725 18.125 10.875 18.125ZM10.875 16.625C10.1417 16.625 9.52067 16.371 9.012 15.863C8.504 15.3543 8.25 14.7333 8.25 14C8.25 13.2667 8.504 12.6457 9.012 12.137C9.52067 11.629 10.1417 11.375 10.875 11.375C11.6083 11.375 12.2293 11.629 12.738 12.137C13.246 12.6457 13.5 13.2667 13.5 14C13.5 14.7333 13.246 15.3543 12.738 15.863C12.2293 16.371 11.6083 16.625 10.875 16.625Z" fill="#808080"/>
</g>
</svg>
