<svg width="20" height="20" viewBox="0 0 20 20" fill="none" xmlns="http://www.w3.org/2000/svg">
<path d="M3.66623 20H16.3333C17.2534 19.9989 17.999 19.2533 18.0001 18.3333V2.99935C17.999 2.07931 17.2534 1.33374 16.3333 1.33264H13.6052C13.4645 0.934492 13.0888 0.66769 12.6665 0.665951H11.4885C11.3852 0.659427 11.289 0.611319 11.2218 0.5326C10.9064 0.192967 10.4639 0 10.0005 0C9.53697 0 9.09443 0.192967 8.77909 0.5326C8.71191 0.611286 8.6157 0.659394 8.51242 0.665951H7.33304C6.91077 0.66769 6.53511 0.934526 6.39433 1.33264H3.66623C2.74619 1.33374 2.00062 2.07931 1.99951 2.99935V18.3332C2.00058 19.2533 2.74616 19.9989 3.66623 20ZM7.33301 3.66607H12.6665C12.9494 3.66517 13.2185 3.54396 13.4066 3.33273H16V17.9999H3.99957V3.3327H6.59299C6.78107 3.54396 7.05018 3.66517 7.33301 3.66607ZM7.33301 1.33264H8.51105C8.80103 1.32856 9.07587 1.20246 9.26806 0.985277C9.46033 0.78786 9.72419 0.676522 9.99975 0.676522C10.2753 0.676522 10.5392 0.78786 10.7314 0.985277C10.9237 1.20243 11.1985 1.32852 11.4885 1.33264H12.6665C12.8506 1.33264 12.9998 1.48188 12.9998 1.66598V2.66601C12.9998 2.85011 12.8506 2.99935 12.6665 2.99935H7.33301C7.1489 2.99935 6.99966 2.85011 6.99966 2.66601V1.66598C6.99966 1.48188 7.1489 1.33264 7.33301 1.33264ZM2.66616 2.99935C2.66616 2.44705 3.11389 1.99932 3.6662 1.99932H6.33294V2.66601H3.99954C3.63134 2.66601 3.33285 2.96449 3.33285 3.3327V17.9999C3.33285 18.3681 3.63134 18.6666 3.99954 18.6666H16C16.3682 18.6666 16.6667 18.3681 16.6667 17.9999V3.3327C16.6667 2.96449 16.3682 2.66601 16 2.66601H13.6666V1.99932H16.3333C16.8856 1.99932 17.3333 2.44705 17.3333 2.99935V18.3332C17.3333 18.8856 16.8856 19.3333 16.3333 19.3333H3.66623C3.11392 19.3333 2.6662 18.8856 2.6662 18.3332V2.99935H2.66616Z" fill="#6E7A8A"/>
<path d="M10.0001 1.99908C10.1842 1.99908 10.3334 1.84984 10.3334 1.66574C10.3334 1.48164 10.1842 1.3324 10.0001 1.3324C9.81599 1.3324 9.66675 1.48164 9.66675 1.66574C9.66675 1.84984 9.81599 1.99908 10.0001 1.99908Z" fill="#6E7A8A"/>
<path d="M5.80016 9.33333H14.2002C14.4579 9.33333 14.6668 9.03486 14.6668 8.66667C14.6668 8.29848 14.4579 8 14.2002 8H5.80016C5.54243 8 5.3335 8.29848 5.3335 8.66667C5.3335 9.03486 5.54243 9.33333 5.80016 9.33333Z" fill="#6E7A8A"/>
<path d="M5.80016 13.3333H14.2002C14.4579 13.3333 14.6668 13.0349 14.6668 12.6667C14.6668 12.2985 14.4579 12 14.2002 12H5.80016C5.54243 12 5.3335 12.2985 5.3335 12.6667C5.3335 13.0349 5.54243 13.3333 5.80016 13.3333Z" fill="#6E7A8A"/>
</svg>
