<svg width="26" height="27" viewBox="0 0 26 27" fill="none" xmlns="http://www.w3.org/2000/svg">
<path d="M13 4.65996C17.888 4.65997 21.84 8.61197 21.84 13.5C21.84 18.388 17.888 22.34 13 22.34C8.112 22.34 4.15999 18.388 4.15999 13.5C4.16 8.61196 8.112 4.65996 13 4.65996ZM13 21.3C17.316 21.3 20.8 17.816 20.8 13.5C20.8 9.18397 17.316 5.69997 13 5.69997C8.684 5.69997 5.2 9.18397 5.2 13.5C5.2 17.816 8.684 21.3 13 21.3Z" fill="#0068FF"/>
<path d="M12.844 8.45595L17.888 13.4999L12.844 18.5439L12.116 17.8159L16.432 13.4999L12.116 9.18395L12.844 8.45595Z" fill="#0068FF"/>
<path d="M17.16 14.02L8.32 14.02L8.32 12.98L17.16 12.98L17.16 14.02Z" fill="#0068FF"/>
</svg>
