<svg width="71" height="84" viewBox="0 0 71 84" fill="none" xmlns="http://www.w3.org/2000/svg">
<g clip-path="url(#clip0_65_4765)">
<path d="M27.0436 69.2628L18.566 73.8987L10.0884 69.2628L1.5896 73.8987V37.7468V1.59491L10.046 6.23086L18.5236 1.59491L27.0012 6.23086L35.4789 1.59491L43.9565 6.23086L52.4553 1.59491V37.7468" stroke="#444444" stroke-width="2.5" stroke-linecap="round" stroke-linejoin="round"/>
<path d="M20.6641 20.7342H41.8581" stroke="#444444" stroke-width="2.5" stroke-linecap="round" stroke-linejoin="round"/>
<path d="M10.0671 42H35.5" stroke="#444444" stroke-width="2.5" stroke-linecap="round" stroke-linejoin="round"/>
<path d="M10.0671 50.5063H24.903" stroke="#444444" stroke-width="2.5" stroke-linecap="round" stroke-linejoin="round"/>
<path d="M20.6641 29.2405H35.4999" stroke="#444444" stroke-width="2.5" stroke-linecap="round" stroke-linejoin="round"/>
<circle cx="50" cy="63" r="20" fill="#ED1C24"/>
<path d="M14.3059 20.7342H10.0671" stroke="#444444" stroke-width="2.5" stroke-linecap="round" stroke-linejoin="round"/>
<path d="M14.3059 29.2405H10.0671" stroke="#444444" stroke-width="2.5" stroke-linecap="round" stroke-linejoin="round"/>
<path d="M50.3359 82.4051C60.8705 82.4051 69.4105 73.8361 69.4105 63.2658C69.4105 52.6955 60.8705 44.1266 50.3359 44.1266C39.8012 44.1266 31.2612 52.6955 31.2612 63.2658C31.2612 73.8361 39.8012 82.4051 50.3359 82.4051Z" stroke="#444444" stroke-width="2.5" stroke-linecap="round" stroke-linejoin="round"/>
<path d="M43.9775 71.7722H52.4552C53.5794 71.7722 54.6575 71.3241 55.4524 70.5265C56.2474 69.7288 56.694 68.647 56.694 67.519C56.694 66.391 56.2474 65.3092 55.4524 64.5116C54.6575 63.7139 53.5794 63.2659 52.4552 63.2659H48.2163C47.0921 63.2659 46.014 62.8178 45.2191 62.0201C44.4241 61.2225 43.9775 60.1407 43.9775 59.0127C43.9775 57.8847 44.4241 56.8029 45.2191 56.0052C46.014 55.2076 47.0921 54.7595 48.2163 54.7595H56.694" stroke="white" stroke-width="2.5" stroke-linecap="round" stroke-linejoin="round"/>
<path d="M50.3359 50.5063V54.7595" stroke="white" stroke-width="2.5" stroke-linecap="round" stroke-linejoin="round"/>
<path d="M50.3359 71.7722V76.0253" stroke="white" stroke-width="2.5" stroke-linecap="round" stroke-linejoin="round"/>
</g>
<defs>
<clipPath id="clip0_65_4765">
<rect width="71" height="84" fill="white"/>
</clipPath>
</defs>
</svg>
