<svg width="70" height="89" viewBox="0 0 70 89" fill="none" xmlns="http://www.w3.org/2000/svg">
<g clip-path="url(#clip0_65_4821)">
<path d="M39.2002 67.9764C40.0402 70.2189 48.6502 78.2546 52.8502 81.9922C54.1334 80.7074 57.8899 76.8763 62.65 71.8307C68.5999 65.5236 70.7 60.6181 67.9 52.559C65.1 44.5 59.15 42.7481 54.25 42.0473C49.35 41.3465 42.7002 44.1496 38.1502 50.8071C33.6002 57.4646 38.1502 65.1733 39.2002 67.9764Z" fill="#ED1C24"/>
<path d="M2.19176 40.4016C2.7983 42.0104 9.01531 47.7753 12.048 50.4567C12.9746 49.535 15.6871 46.7865 19.1241 43.1667C23.4204 38.6419 24.9368 35.1226 22.915 29.3409C20.8932 23.5592 16.5969 22.3023 13.0587 21.7996C9.52059 21.2968 4.71901 23.3079 1.43359 28.084C-1.85182 32.8602 1.43359 38.3906 2.19176 40.4016Z" fill="#0068FF"/>
<ellipse cx="53.1999" cy="57.4646" rx="6.3" ry="6.30709" fill="white"/>
<ellipse cx="12.25" cy="32.5866" rx="4.55" ry="4.55512" fill="white"/>
<path d="M52.9172 89.0449C51.0452 89.0562 49.1835 88.7682 47.4033 88.1921C47.2904 88.164 47.1845 88.1131 47.0922 88.0424C46.9999 87.9718 46.9233 87.8829 46.8672 87.7814C46.811 87.68 46.7766 87.568 46.7659 87.4527C46.7552 87.3373 46.7686 87.221 46.8051 87.111C46.8417 87.001 46.9007 86.8997 46.9784 86.8135C47.0562 86.7272 47.151 86.6579 47.2569 86.6098C47.3628 86.5617 47.4775 86.5359 47.5939 86.5339C47.7103 86.532 47.8258 86.554 47.9333 86.5986C49.5431 87.1157 51.2256 87.3734 52.9172 87.3617C58.2732 87.3617 62.806 84.8367 62.806 81.8405C62.806 79.9889 61.0245 78.1935 58.1492 77.1723C58.0394 77.1351 57.9384 77.0758 57.8526 76.9982C57.7668 76.9205 57.698 76.8261 57.6504 76.7209C57.6028 76.6156 57.5775 76.5018 57.576 76.3864C57.5745 76.271 57.5969 76.1565 57.6417 76.0501C57.6783 75.9467 57.7352 75.8514 57.8089 75.77C57.8827 75.6885 57.972 75.6224 58.0716 75.5754C58.1712 75.5285 58.2791 75.5016 58.3892 75.4964C58.4993 75.4912 58.6093 75.5078 58.7129 75.5451C62.3325 76.8356 64.4974 79.1698 64.4974 81.7957C64.5087 85.8355 59.4233 89.0449 52.9172 89.0449ZM43.7838 86.0263C43.676 86.0295 43.5686 86.0113 43.4679 85.9728C43.3673 85.9342 43.2753 85.8761 43.1975 85.8018C42.628 85.3056 42.1677 84.6975 41.8456 84.0158C41.5235 83.3342 41.3465 82.5935 41.3257 81.8405C41.3257 79.2371 43.4568 76.9142 46.9636 75.6124C47.0707 75.5695 47.1854 75.5485 47.3009 75.5508C47.4164 75.5531 47.5302 75.5786 47.6355 75.6258C47.7408 75.6729 47.8355 75.7408 47.9138 75.8253C47.9921 75.9098 48.0524 76.0092 48.0911 76.1174C48.136 76.2239 48.1583 76.3383 48.1568 76.4537C48.1553 76.5691 48.13 76.683 48.0824 76.7883C48.0349 76.8935 47.966 76.9879 47.8802 77.0655C47.7945 77.1432 47.6935 77.2024 47.5837 77.2396C44.7535 78.272 42.9945 80.0563 42.9945 81.8854C43.0237 82.4078 43.1574 82.919 43.3878 83.3892C43.6182 83.8594 43.9407 84.2791 44.3363 84.6235C44.492 84.7828 44.5791 84.9961 44.5791 85.2183C44.5791 85.4404 44.492 85.6538 44.3363 85.813C44.1816 85.9312 43.9898 85.9908 43.7951 85.9814L43.7838 86.0263Z" fill="black"/>
<path d="M52.9173 82.6484C52.801 82.6478 52.686 82.6236 52.5794 82.5773C52.4728 82.531 52.3767 82.4636 52.2971 82.3791C51.4966 81.5375 50.6509 80.6959 49.7826 79.8542C49.6243 79.6964 49.5353 79.4825 49.5353 79.2595C49.5353 79.0364 49.6243 78.8225 49.7826 78.6647C49.9412 78.5071 50.1561 78.4186 50.3803 78.4186C50.6044 78.4186 50.8193 78.5071 50.9779 78.6647C51.6431 79.3044 52.2971 79.9552 52.9286 80.5949C54.0562 79.4727 55.2965 78.2495 56.5819 77.0151C60.8216 72.964 65.2079 68.7671 67.2375 63.8295C67.2767 63.7222 67.338 63.6241 67.4174 63.5417C67.4969 63.4593 67.5928 63.3944 67.699 63.3511C67.8052 63.3078 67.9193 63.287 68.034 63.2902C68.1487 63.2933 68.2615 63.3203 68.3651 63.3694C68.4729 63.4087 68.5714 63.4696 68.6545 63.5485C68.7375 63.6273 68.8033 63.7224 68.8478 63.8277C68.8922 63.9331 68.9144 64.0464 68.9128 64.1606C68.9112 64.2748 68.886 64.3875 68.8387 64.4916C66.6737 69.7658 62.1522 74.0862 57.7884 78.2607C56.2888 79.6971 54.868 81.055 53.5713 82.424C53.4934 82.5076 53.3993 82.5746 53.2946 82.6209C53.19 82.6672 53.0769 82.6918 52.9624 82.6933L52.9173 82.6484ZM47.1328 76.9702C47.0243 76.9713 46.9166 76.9511 46.816 76.9107C46.7154 76.8702 46.6238 76.8104 46.5465 76.7346C41.1567 71.5164 35.8909 65.7933 35.8909 58.2635C35.8888 56.2655 36.24 54.2827 36.9283 52.4057C37.006 52.1959 37.1643 52.0254 37.3684 51.9318C37.5724 51.8381 37.8055 51.829 38.0164 51.9064C38.2272 51.9837 38.3985 52.1413 38.4926 52.3444C38.5867 52.5475 38.5959 52.7794 38.5182 52.9893C37.8962 54.6787 37.5794 56.4643 37.5822 58.2635C37.5822 65.1425 42.3744 70.3494 47.7304 75.5338C47.8536 75.6486 47.9389 75.7979 47.9751 75.9619C48.0113 76.1259 47.9967 76.2969 47.9332 76.4525C47.8696 76.6081 47.7602 76.7408 47.6194 76.8333C47.4785 76.9257 47.3128 76.9734 47.1441 76.9702H47.1328ZM69.1206 60.6425H69.0304C68.8077 60.6198 68.6032 60.5102 68.4616 60.3378C68.32 60.1653 68.2528 59.944 68.2749 59.7223C68.3293 59.238 68.3556 58.7509 68.3538 58.2635C68.3441 55.0348 67.3094 51.8917 65.3976 49.2832C63.4858 46.6746 60.7946 44.734 57.7085 43.7384C54.6223 42.7428 51.299 42.7432 48.213 43.7395C45.1271 44.7358 42.4364 46.6771 40.5252 49.2861C40.4594 49.3754 40.3766 49.4508 40.2814 49.5082C40.1863 49.5656 40.0807 49.6037 39.9707 49.6204C39.8607 49.637 39.7485 49.6319 39.6405 49.6054C39.5325 49.5788 39.4308 49.5314 39.3413 49.4656C39.1625 49.3316 39.0436 49.1332 39.0099 48.913C38.9762 48.6929 39.0304 48.4683 39.1608 48.2873C41.2847 45.3895 44.2751 43.2344 47.7041 42.1303C51.1332 41.0262 54.8253 41.0298 58.2522 42.1405C61.6792 43.2512 64.6653 45.4121 66.7835 48.314C68.9017 51.216 70.0434 54.7104 70.0452 58.2972C70.0473 58.8406 70.021 59.3837 69.9663 59.9243C69.9355 60.1335 69.8269 60.3235 69.6618 60.4566C69.4968 60.5896 69.2874 60.656 69.0755 60.6425H69.1206Z" fill="black"/>
<path d="M52.9171 64.155C51.2969 64.1602 49.7286 63.5865 48.4973 62.5383C47.2661 61.4901 46.4538 60.037 46.208 58.4431C46.1865 58.2289 46.2484 58.0146 46.3807 57.8444C46.5131 57.6741 46.706 57.5608 46.9197 57.5278C47.1334 57.4947 47.3518 57.5444 47.5298 57.6667C47.7078 57.7889 47.832 57.9744 47.8769 58.185C48.0574 59.3507 48.6404 60.4173 49.5257 61.2014C50.411 61.9855 51.5432 62.438 52.7275 62.4812C53.9119 62.5243 55.0743 62.1554 56.0148 61.4379C56.9554 60.7203 57.6153 59.6989 57.881 58.5495C58.1467 57.4001 58.0016 56.1945 57.4707 55.1401C56.9398 54.0856 56.0562 53.2482 54.972 52.772C53.8878 52.2957 52.6707 52.2104 51.5301 52.5306C50.3896 52.8509 49.3968 53.5567 48.7226 54.5267C48.6589 54.618 48.5777 54.696 48.4838 54.7562C48.3898 54.8164 48.2849 54.8575 48.1749 54.8773C48.065 54.8971 47.9522 54.8952 47.843 54.8716C47.7339 54.848 47.6304 54.8033 47.5386 54.7399C47.4468 54.6765 47.3684 54.5958 47.308 54.5023C47.2475 54.4088 47.2062 54.3043 47.1863 54.1949C47.1664 54.0855 47.1683 53.9733 47.192 53.8646C47.2157 53.7559 47.2607 53.653 47.3244 53.5616C47.9887 52.617 48.8857 51.858 49.9294 51.3573C50.9731 50.8567 52.1285 50.6312 53.2848 50.7024C54.4412 50.7736 55.5598 51.1391 56.5335 51.764C57.5072 52.3889 58.3033 53.2522 58.8456 54.2711C59.3879 55.29 59.6582 56.4305 59.6305 57.5832C59.6029 58.7359 59.2783 59.8622 58.6878 60.8543C58.0973 61.8463 57.2607 62.6708 56.2581 63.2488C55.2556 63.8267 54.1207 64.1388 52.9623 64.155H52.9171Z" fill="black"/>
<path d="M12.3245 55.6601C7.54355 55.6601 3.81128 53.2923 3.81128 50.2736C3.8171 49.5115 4.05277 48.7687 4.4878 48.1415C4.60926 47.9655 4.79419 47.8428 5.00417 47.7989C5.21415 47.755 5.43303 47.7933 5.61538 47.9058C5.78792 48.0301 5.90779 48.2139 5.95157 48.4214C5.99535 48.6289 5.95992 48.8451 5.85219 49.028C5.59983 49.3784 5.46203 49.7977 5.45753 50.2287C5.45753 52.2374 8.58091 53.9319 12.2794 53.9319C15.9778 53.9319 19.0448 52.2374 19.0448 50.2287C19.0448 49.0168 17.8383 47.8161 15.8763 47.1203C15.7675 47.0818 15.6677 47.0217 15.5828 46.9438C15.4979 46.8659 15.4297 46.7717 15.3823 46.6668C15.3349 46.562 15.3093 46.4488 15.307 46.3339C15.3047 46.2189 15.3258 46.1048 15.3689 45.9981C15.4063 45.8889 15.4658 45.7884 15.5439 45.703C15.6219 45.6177 15.7167 45.5492 15.8225 45.5018C15.9282 45.4545 16.0426 45.4292 16.1586 45.4277C16.2745 45.4263 16.3896 45.4485 16.4965 45.4932C19.1802 46.447 20.7813 48.2088 20.7813 50.1839C20.8151 53.2923 17.0829 55.6601 12.3245 55.6601Z" fill="black"/>
<path d="M12.3243 51.1265C12.2096 51.1263 12.0961 51.1023 11.9913 51.0559C11.8864 51.0095 11.7924 50.9418 11.7154 50.8571C10.7683 49.8696 9.75344 48.8933 8.68224 47.8721C4.8372 44.1802 0.856873 40.3648 0.0675687 35.2701C0.05054 35.1603 0.0553999 35.0482 0.0818836 34.9403C0.108367 34.8324 0.155937 34.7308 0.221902 34.6411C0.287866 34.5515 0.37092 34.4757 0.466322 34.418C0.561725 34.3604 0.667632 34.322 0.777948 34.305C0.888264 34.2881 1.00086 34.2929 1.10929 34.3193C1.21773 34.3456 1.31986 34.393 1.4099 34.4586C1.49995 34.5243 1.57614 34.6069 1.63409 34.7019C1.69204 34.7968 1.73062 34.9022 1.74765 35.012C2.44675 39.5007 6.25796 43.159 9.85493 46.6602C10.6781 47.4457 11.535 48.2537 12.3243 49.0729C13.0911 48.2874 13.9142 47.5018 14.7712 46.6826C15.6281 45.8635 16.4061 45.1116 17.2067 44.3036C17.3652 44.1444 17.5808 44.0543 17.806 44.0533C18.0312 44.0522 18.2476 44.1403 18.4076 44.298C18.5676 44.4557 18.6581 44.6703 18.6591 44.8944C18.6602 45.1185 18.5717 45.3339 18.4132 45.4931C17.6014 46.3123 16.767 47.1091 15.9438 47.8946C14.8163 48.9158 13.8578 49.8921 12.9445 50.8571C12.8649 50.9416 12.7689 51.009 12.6622 51.0553C12.5556 51.1016 12.4407 51.1258 12.3243 51.1265ZM20.7924 42.3847C20.6079 42.3832 20.4291 42.3199 20.285 42.2052C20.1073 42.0696 19.9909 41.8694 19.9613 41.6485C19.9318 41.4276 19.9914 41.204 20.1272 41.0268C21.9507 38.9179 23.0003 36.255 23.104 33.4746C23.0949 30.8699 22.1311 28.358 20.3932 26.4104C18.6554 24.4628 16.263 23.2133 13.6652 22.8965C11.0674 22.5797 8.44268 23.2173 6.28373 24.6897C4.12478 26.1622 2.58003 28.3681 1.93935 30.8936C1.87226 31.0961 1.73041 31.2657 1.54252 31.3681C1.35463 31.4706 1.13471 31.4982 0.927119 31.4455C0.71953 31.3928 0.539763 31.2636 0.424169 31.0841C0.308575 30.9046 0.265753 30.6881 0.30435 30.4784C1.0489 27.5673 2.8345 25.0263 5.32659 23.3316C7.81868 21.6368 10.8462 20.9046 13.8419 21.2721C16.8376 21.6396 19.5958 23.0816 21.5997 25.3279C23.6037 27.5743 24.7158 30.4707 24.7277 33.4746C24.6221 36.624 23.4499 39.6453 21.4013 42.048C21.3225 42.1498 21.222 42.2329 21.1069 42.2912C20.9918 42.3494 20.8651 42.3814 20.736 42.3847H20.7924Z" fill="black"/>
<path d="M12.3244 37.9184C11.3186 37.9184 10.3354 37.6216 9.49911 37.0655C8.66282 36.5093 8.01102 35.7189 7.62612 34.7941C7.24122 33.8694 7.14051 32.8517 7.33673 31.87C7.53295 30.8883 8.01728 29.9865 8.72848 29.2787C9.43968 28.5709 10.3458 28.0889 11.3323 27.8936C12.3187 27.6983 13.3412 27.7985 14.2705 28.1816C15.1997 28.5646 15.9939 29.2133 16.5527 30.0456C17.1115 30.8779 17.4098 31.8564 17.4098 32.8574C17.4068 34.1987 16.87 35.4843 15.917 36.4328C14.9639 37.3812 13.6722 37.9154 12.3244 37.9184ZM12.3244 29.4908C11.6553 29.4908 11.0013 29.6883 10.445 30.0582C9.88874 30.4281 9.45518 30.9539 9.19915 31.569C8.94312 32.1842 8.87613 32.8611 9.00666 33.5141C9.13718 34.1672 9.45936 34.7671 9.93245 35.2379C10.4055 35.7087 11.0083 36.0293 11.6645 36.1592C12.3206 36.2891 13.0008 36.2224 13.6189 35.9676C14.237 35.7128 14.7653 35.2813 15.137 34.7277C15.5087 34.1741 15.7071 33.5232 15.7071 32.8574C15.7071 31.9645 15.3507 31.1082 14.7163 30.4769C14.0819 29.8455 13.2215 29.4908 12.3244 29.4908Z" fill="black"/>
<path d="M39.4539 26.5058C35.7329 26.5058 32.8237 24.6318 32.8237 22.2303C32.8237 20.6593 34.0641 19.2678 36.1501 18.5159C36.2553 18.4747 36.3677 18.4549 36.4808 18.4576C36.5938 18.4603 36.7051 18.4856 36.8082 18.5319C36.9112 18.5782 37.0039 18.6446 37.0807 18.7272C37.1575 18.8098 37.2169 18.9069 37.2554 19.0127C37.2938 19.1185 37.3106 19.2309 37.3046 19.3433C37.2987 19.4557 37.2701 19.5657 37.2207 19.6669C37.1713 19.7681 37.1019 19.8584 37.0168 19.9325C36.9317 20.0066 36.8325 20.0629 36.7252 20.0982C35.3608 20.592 34.47 21.4111 34.47 22.2303C34.47 23.4535 36.4996 24.8226 39.4088 24.8226C42.3179 24.8226 44.3476 23.4535 44.3476 22.2303C44.3476 21.3999 43.4793 20.5807 42.0924 20.087C41.8801 20.0111 41.7068 19.8544 41.6106 19.6513C41.5143 19.4482 41.5031 19.2154 41.5794 19.0041C41.6556 18.7928 41.8131 18.6203 42.0172 18.5245C42.2212 18.4288 42.4552 18.4176 42.6675 18.4935C44.7761 19.2566 46.0502 20.6481 46.0502 22.2303C46.0841 24.6318 43.1749 26.5058 39.4539 26.5058Z" fill="black"/>
<path d="M38.0782 21.7142C37.856 21.7146 37.6422 21.6303 37.4806 21.4785L36.5334 20.5583C33.3988 17.5509 29.8582 14.1619 29.8582 9.54976C29.8625 7.14027 30.7797 4.82103 32.4267 3.055C34.0738 1.28897 36.3294 0.206073 38.7435 0.0224694C38.8621 -0.00567038 38.9857 -0.00567038 39.1043 0.0224694C39.2142 -0.0273108 39.3331 -0.0540581 39.4538 -0.0560913C41.9998 -0.0531174 44.4405 0.955485 46.2397 2.74819C48.0389 4.5409 49.0495 6.97108 49.0495 9.50486C49.0495 14.0721 45.4526 17.506 42.2841 20.5359L41.8443 20.9623C41.7707 21.0627 41.6758 21.1457 41.5662 21.2053C41.4566 21.2648 41.3351 21.2995 41.2104 21.3067C41.0857 21.314 40.961 21.2937 40.8452 21.2473C40.7293 21.2009 40.6252 21.1295 40.5404 21.0384C40.4555 20.9472 40.392 20.8384 40.3545 20.7199C40.3169 20.6014 40.3061 20.4761 40.323 20.3529C40.3398 20.2298 40.3839 20.1119 40.452 20.0077C40.5201 19.9035 40.6105 19.8156 40.7167 19.7504L41.1678 19.3239C44.2235 16.395 47.4033 13.3539 47.4033 9.50486C47.4033 7.42152 46.5717 5.42351 45.0915 3.95037C43.6112 2.47722 41.6036 1.64961 39.5102 1.64961C39.4132 1.66659 39.314 1.66659 39.2171 1.64961C39.1241 1.68908 39.0248 1.71187 38.9239 1.71694C36.9317 1.86176 35.0689 2.7529 33.7108 4.21064C32.3528 5.66838 31.6006 7.58431 31.6059 9.57219C31.6059 13.4661 34.7406 16.4624 37.7625 19.3688L38.7209 20.289C38.8793 20.4468 38.9682 20.6607 38.9682 20.8838C38.9682 21.1068 38.8793 21.3207 38.7209 21.4785C38.6367 21.5608 38.5358 21.6244 38.425 21.665C38.3142 21.7056 38.196 21.7224 38.0782 21.7142Z" fill="black"/>
<path d="M39.454 13.107C38.6529 13.107 37.8698 12.8705 37.2039 12.4273C36.5379 11.9841 36.0191 11.3543 35.7131 10.6175C35.407 9.88072 35.3275 9.07013 35.4846 8.28835C35.6417 7.50657 36.0284 6.78874 36.5956 6.22577C37.1629 5.66281 37.8852 5.28003 38.6712 5.12586C39.4572 4.97168 40.2714 5.05305 41.0109 5.35969C41.7504 5.66633 42.3818 6.18443 42.8253 6.8484C43.2687 7.51238 43.5042 8.29239 43.502 9.08965C43.499 10.1562 43.0712 11.178 42.3124 11.9311C41.5535 12.6841 40.5256 13.107 39.454 13.107ZM39.454 6.7443C38.9879 6.7443 38.5323 6.88185 38.1447 7.13956C37.7572 7.39728 37.4551 7.76356 37.2767 8.19212C37.0984 8.62068 37.0517 9.09225 37.1426 9.54721C37.2336 10.0022 37.458 10.42 37.7876 10.7481C38.1172 11.0761 38.5371 11.2994 38.9942 11.3899C39.4514 11.4804 39.9252 11.434 40.3558 11.2565C40.7864 11.079 41.1545 10.7783 41.4134 10.3926C41.6724 10.007 41.8106 9.55351 41.8106 9.08965C41.8106 8.46762 41.5623 7.87108 41.1204 7.43124C40.6784 6.9914 40.079 6.7443 39.454 6.7443Z" fill="black"/>
<path d="M22.2696 46.8285C22.1074 46.829 21.9485 46.783 21.8118 46.6961C21.6751 46.6093 21.5664 46.4851 21.4987 46.3384C21.4309 46.1918 21.407 46.0288 21.4297 45.869C21.4524 45.7092 21.5209 45.5593 21.6268 45.4371L39.3862 25.0807C39.5357 24.9111 39.7468 24.8075 39.9731 24.7928C40.1994 24.778 40.4222 24.8533 40.5927 25.0022C40.7632 25.151 40.8672 25.3611 40.882 25.5863C40.8968 25.8114 40.8212 26.0332 40.6716 26.2029L22.9235 46.5368C22.8437 46.6313 22.7434 46.7067 22.6301 46.7572C22.5169 46.8077 22.3936 46.8321 22.2696 46.8285Z" fill="black"/>
<path d="M42.1827 82.6372C41.9744 82.6397 41.773 82.5635 41.6189 82.424L35.124 76.555C34.959 76.4048 34.8595 76.1962 34.8469 75.974C34.8343 75.7517 34.9095 75.5334 35.0564 75.3655C35.1311 75.2837 35.2214 75.2173 35.3219 75.1702C35.4224 75.1231 35.5313 75.0961 35.6423 75.0909C35.7533 75.0857 35.8643 75.1023 35.9688 75.1398C36.0734 75.1773 36.1695 75.2349 36.2516 75.3094L42.769 81.1896C42.8937 81.3046 42.9806 81.4544 43.0185 81.6193C43.0564 81.7842 43.0434 81.9567 42.9813 82.1142C42.9193 82.2717 42.8109 82.4069 42.6705 82.5022C42.53 82.5975 42.3639 82.6485 42.1939 82.6484L42.1827 82.6372ZM32.3502 73.7496C32.1388 73.7505 31.9344 73.6747 31.7751 73.5364L11.7381 55.4356C11.5747 55.2838 11.4773 55.0745 11.4668 54.8523C11.4562 54.6301 11.5334 54.4125 11.6817 54.2461C11.7565 54.1643 11.8467 54.0979 11.9472 54.0508C12.0478 54.0037 12.1567 53.9767 12.2677 53.9715C12.3787 53.9663 12.4896 53.9829 12.5941 54.0204C12.6987 54.0579 12.7948 54.1155 12.8769 54.19L32.914 72.2908C33.038 72.4051 33.1247 72.5538 33.1629 72.7177C33.2011 72.8816 33.1891 73.0531 33.1284 73.2102C33.0677 73.3672 32.9612 73.5025 32.8224 73.5987C32.6837 73.6948 32.5192 73.7474 32.3502 73.7496Z" fill="black"/>
</g>
<defs>
<clipPath id="clip0_65_4821">
<rect width="70" height="89" fill="white"/>
</clipPath>
</defs>
</svg>
