<svg width="98" height="82" viewBox="0 0 98 82" fill="none" xmlns="http://www.w3.org/2000/svg">
<g clip-path="url(#clip0_65_4781)">
<path d="M28.0933 38.3969H12.4133V80.0476H28.0933V38.3969Z" fill="#003D96" stroke="#444444" stroke-width="3" stroke-linecap="round" stroke-linejoin="round"/>
<path d="M56.8399 43.6031H41.1599V80.0476H56.8399V43.6031Z" fill="#0068FF" stroke="#444444" stroke-width="3" stroke-linecap="round" stroke-linejoin="round"/>
<path d="M85.5867 22.7778H69.9067V80.0476H85.5867V22.7778Z" fill="#ED1C24" stroke="#444444" stroke-width="3" stroke-linecap="round" stroke-linejoin="round"/>
<path d="M62.0667 1.95239H72.52V12.3651" stroke="#444444" stroke-width="3" stroke-linecap="round" stroke-linejoin="round"/>
<path d="M12.4133 22.7778H33.32L42.4667 31.8889L72.52 1.95239" stroke="#444444" stroke-width="3" stroke-linecap="round" stroke-linejoin="round"/>
<path d="M1.95996 80.0476H96.04" stroke="#444444" stroke-width="3" stroke-linecap="round" stroke-linejoin="round"/>
</g>
<defs>
<clipPath id="clip0_65_4781">
<rect width="98" height="82" fill="white"/>
</clipPath>
</defs>
</svg>
