<svg width="32" height="31" viewBox="0 0 32 31" fill="none" xmlns="http://www.w3.org/2000/svg">
<path d="M16 3.14844C13.5571 3.14844 11.169 3.87284 9.13784 5.23005C7.10664 6.58726 5.52351 8.51631 4.58865 10.7733C3.65379 13.0302 3.40919 15.5137 3.88577 17.9097C4.36236 20.3056 5.53873 22.5065 7.26613 24.2339C8.99353 25.9613 11.1944 27.1376 13.5903 27.6142C15.9863 28.0908 18.4698 27.8462 20.7267 26.9114C22.9837 25.9765 24.9127 24.3934 26.27 22.3622C27.6272 20.331 28.3516 17.9429 28.3516 15.5C28.3477 12.2253 27.0452 9.08591 24.7296 6.77037C22.4141 4.45484 19.2747 3.15228 16 3.14844ZM25.8776 10.8984H21.0121C20.4826 8.70227 19.5169 6.63499 18.1724 4.81953C19.8415 5.16253 21.4074 5.89077 22.7452 6.94619C24.0829 8.00161 25.1556 9.355 25.8776 10.8984ZM26.8984 15.5C26.8993 16.5666 26.743 17.6274 26.4347 18.6484H21.3112C21.6567 16.5637 21.6567 14.4363 21.3112 12.3516H26.4347C26.743 13.3726 26.8993 14.4334 26.8984 15.5ZM16 26.3984C15.9698 26.3986 15.9399 26.3923 15.9124 26.38C15.8848 26.3677 15.8602 26.3496 15.8402 26.327C14.2805 24.6474 13.1349 22.4907 12.4883 20.1016H19.5117C18.8651 22.4907 17.7195 24.6474 16.1599 26.327C16.1398 26.3496 16.1152 26.3677 16.0877 26.38C16.0601 26.3923 16.0302 26.3986 16 26.3984ZM12.1625 18.6484C11.7896 16.566 11.7896 14.434 12.1625 12.3516H19.8375C20.2104 14.434 20.2104 16.566 19.8375 18.6484H12.1625ZM5.10157 15.5C5.10075 14.4334 5.25703 13.3726 5.56536 12.3516H10.6888C10.3433 14.4363 10.3433 16.5637 10.6888 18.6484H5.56536C5.25703 17.6274 5.10075 16.5666 5.10157 15.5ZM16 4.60156C16.0302 4.6014 16.0601 4.60768 16.0877 4.62001C16.1152 4.63233 16.1398 4.6504 16.1599 4.67301C17.7195 6.35258 18.8651 8.50926 19.5117 10.8984H12.4883C13.1349 8.50926 14.2805 6.35258 15.8402 4.67301C15.8602 4.6504 15.8848 4.63233 15.9124 4.62001C15.9399 4.60768 15.9698 4.6014 16 4.60156ZM13.8276 4.81953C12.4831 6.63499 11.5174 8.70227 10.9879 10.8984H6.12239C6.84441 9.355 7.91708 8.00161 9.25485 6.94619C10.5926 5.89077 12.1585 5.16253 13.8276 4.81953ZM6.12239 20.1016H10.9879C11.5174 22.2977 12.4831 24.365 13.8276 26.1805C12.1585 25.8375 10.5926 25.1092 9.25485 24.0538C7.91708 22.9984 6.84441 21.645 6.12239 20.1016ZM18.1724 26.1805C19.5169 24.365 20.4826 22.2977 21.0121 20.1016H25.8776C25.1556 21.645 24.0829 22.9984 22.7452 24.0538C21.4074 25.1092 19.8415 25.8375 18.1724 26.1805Z" fill="white"/>
</svg>
