<svg width="346" height="355" viewBox="0 0 346 355" fill="none" xmlns="http://www.w3.org/2000/svg">
<mask id="mask0_5_4078" style="mask-type:alpha" maskUnits="userSpaceOnUse" x="0" y="0" width="346" height="355">
<rect width="346" height="355" fill="#D9D9D9"/>
</mask>
<g mask="url(#mask0_5_4078)">
<path d="M165 230.593C165 159.771 149.802 86.2016 143.041 55.6275L142.503 53C156.982 195.659 112.107 276.454 57.8986 322.255C52.3342 326.913 46.6499 331.272 40.9059 335.214C18.2319 350.805 -6.73913 362.772 -33.1076 370.684C-38.1336 372.237 -42.9799 373.551 -47.5871 374.685L-52.7328 375.88L-60.1521 377.492H-60.6905L-64.6396 378.268H-65.2978L-71.2811 379.283H-71.9392L-74.871 379.701H-75.7087L-78.0421 380H-78.9995H-80.2561H-81.2731H-82.8886H-83.8459H-84.923H-86H111.449C152.674 356.89 165.06 294.906 165 230.593Z" fill="#005EE8"/>
<path d="M-26.8804 -14.4716C76.2442 -68.2268 201.595 -38.3628 273.591 57.9784C353.474 164.712 331.905 307.582 229.437 391.56C221.864 398.082 213.727 403.918 205.12 409C220.191 401.951 234.505 393.386 247.839 383.436C298.368 346.106 332.391 290.592 342.712 228.636C353.033 166.68 338.843 103.139 303.143 51.4539C267.444 -0.231601 213.033 -36.0096 151.42 -48.3129C89.8075 -60.6162 25.8231 -48.4802 -27 -14.4716" fill="#005EE8"/>
<path d="M130.232 53L24 127.563C63.9721 173.172 65.1724 267.674 58.5704 310C107.005 262.6 143.556 183.798 130.232 53Z" fill="#005EE8"/>
</g>
</svg>
