<svg width="23" height="22" viewBox="0 0 23 22" fill="none" xmlns="http://www.w3.org/2000/svg">
<path d="M21.5004 21.0004L16.4379 15.9379M16.4379 15.9379C17.2505 15.1254 17.8951 14.1607 18.3348 13.0991C18.7746 12.0374 19.0009 10.8996 19.0009 9.75045C19.0009 8.60132 18.7746 7.46345 18.3348 6.4018C17.8951 5.34014 17.2505 4.3755 16.4379 3.56295C15.6254 2.75039 14.6607 2.10584 13.5991 1.66609C12.5374 1.22634 11.3996 1 10.2504 1C9.10132 1 7.96345 1.22634 6.9018 1.66609C5.84014 2.10584 4.8755 2.75039 4.06295 3.56295C2.42192 5.20397 1.5 7.42968 1.5 9.75045C1.5 12.0712 2.42192 14.2969 4.06295 15.9379C5.70397 17.579 7.92968 18.5009 10.2504 18.5009C12.5712 18.5009 14.7969 17.579 16.4379 15.9379Z" stroke="#0068FF" stroke-width="2" stroke-linecap="round" stroke-linejoin="round"/>
</svg>
