<svg width="196" height="136" viewBox="0 0 196 136" fill="none" xmlns="http://www.w3.org/2000/svg">
<g clip-path="url(#clip0_287_5952)">
<path d="M56.725 56.3004C56.725 56.3004 56.725 56.2692 56.725 56.2536C56.6681 55.978 56.6319 55.6972 56.5956 55.4164C56.5956 55.3488 56.5956 55.2864 56.5956 55.224C56.5646 54.938 56.5491 54.6416 56.5387 54.3504V54.1736C56.5387 53.9032 56.5387 53.6536 56.5387 53.3624C56.536 53.3139 56.536 53.2653 56.5387 53.2168C56.5387 52.9204 56.5957 52.6188 56.6371 52.3224L56.6681 52.1248C56.7199 51.818 56.7768 51.5113 56.8544 51.1993C56.901 51.0017 56.958 50.7989 57.0149 50.6013C57.0149 50.5389 57.0563 50.4713 57.0822 50.4089C57.1081 50.3465 57.1599 50.1489 57.2065 50.0189C57.253 49.8889 57.2686 49.8681 57.2944 49.7901C57.3203 49.7121 57.3824 49.5665 57.429 49.4521C57.4756 49.3377 57.4963 49.2961 57.5325 49.2181L57.6723 48.9009C57.7085 48.8229 57.7499 48.7449 57.7913 48.6669C57.8327 48.5889 57.8897 48.4693 57.9466 48.3705L58.076 48.1365L58.2417 47.8557C58.2883 47.7777 58.3348 47.6997 58.3866 47.6269C58.4384 47.5541 58.5005 47.4449 58.5626 47.3565C58.6247 47.2681 58.6661 47.2109 58.7179 47.1329L58.9042 46.8833L59.0698 46.6649L59.2665 46.4205L59.4477 46.2177L59.6548 45.9837L59.8411 45.7861L60.0585 45.5677L60.2552 45.3805L60.4829 45.1725L60.69 44.9957L60.9229 44.7981L61.1403 44.6317L61.3836 44.4497L61.6062 44.2937C61.689 44.2313 61.777 44.1793 61.8598 44.1221L62.0875 43.9765L62.3515 43.8153L62.5844 43.6801L62.8588 43.5345L63.0969 43.4149L63.3764 43.2797L63.6197 43.1705L63.9095 43.0509L64.158 42.9521L64.453 42.8481L64.7015 42.7649L65.012 42.6713L65.2605 42.5985L65.5814 42.5205L65.8247 42.4633L66.1663 42.3957L66.3992 42.3541L66.7823 42.3021L66.979 42.2761C67.1601 42.2761 67.3361 42.2397 67.4966 42.2293H67.5483C67.745 42.2293 67.9417 42.2293 68.1384 42.2293H68.3351H68.7337H68.9718C69.0908 42.2293 69.2151 42.2293 69.3341 42.2553H69.5877L69.9345 42.2969L70.2037 42.3437L70.5401 42.4061L70.8093 42.4633L71.0733 42.5205H71.1406L71.4149 42.5933L71.741 42.6869L71.8238 42.7129L72.093 42.8065L72.2638 42.8637L72.6727 43.0197L72.7969 43.0717L73.2265 43.2641C75.1253 44.1535 76.7536 45.5354 77.9436 47.2675C79.1337 48.9996 79.8425 51.0191 79.9969 53.118C79.9969 53.1492 79.9969 53.1752 79.9969 53.2012C79.9969 53.2272 79.9969 53.3988 79.9969 53.4976C79.9969 53.5964 79.9969 53.69 79.9969 53.7836V54.002C79.9969 54.1216 79.9969 54.2464 79.9969 54.3712C79.9969 54.496 79.9969 54.4856 79.9969 54.548C79.9969 54.6104 79.9969 54.8132 79.9969 54.9484V55.12C79.9969 55.25 79.9969 55.3852 79.9503 55.5152C79.9037 55.6452 79.9503 55.6452 79.9245 55.7076C79.8986 55.77 79.9245 55.8116 79.9245 55.8636C79.9245 55.9156 79.9245 55.952 79.8986 55.9988C79.8675 56.1652 79.8365 56.3316 79.8002 56.5188L79.7537 56.732C79.7537 56.7632 79.7537 56.7944 79.7537 56.8256L79.7071 56.992C79.645 57.226 79.5776 57.46 79.5 57.6888C79.5 57.7772 79.4431 57.8656 79.412 57.954C79.324 58.2036 79.2309 58.474 79.1273 58.6924C79.1273 58.734 79.0911 58.7808 79.0704 58.8224C78.9514 59.098 78.8116 59.3736 78.6718 59.6388L78.5476 59.852C78.4337 60.0496 78.3199 60.2472 78.1956 60.4396L78.0455 60.658C77.8902 60.892 77.7298 61.1156 77.5279 61.334C77.5176 61.3525 77.5054 61.3699 77.4917 61.386C77.3098 61.617 77.1887 61.8903 77.1394 62.1806C77.0901 62.471 77.1143 62.7691 77.2096 63.0476C77.3049 63.3262 77.4684 63.5762 77.685 63.7746C77.9017 63.9731 78.1644 64.1137 78.4493 64.1836L94.4953 68.1564L98.3981 52.2288C98.4683 51.934 98.4621 51.626 98.3801 51.3342C98.2981 51.0425 98.143 50.7767 97.9296 50.5623C97.7162 50.3479 97.4516 50.1921 97.1612 50.1097C96.8708 50.0273 96.5642 50.0211 96.2707 50.0917L95.6754 50.2113L95.5046 50.2373L95.0698 50.2997H94.8576L94.428 50.3361H94.2365C94.0449 50.3361 93.8586 50.3361 93.6671 50.3361H93.6153C93.4083 50.3361 93.2012 50.3361 92.9942 50.3101H92.8027L92.3575 50.2633H92.1401L91.7001 50.1957L91.5034 50.1593C91.2964 50.1229 91.0842 50.0761 90.8772 50.0241C90.6701 49.9721 90.4682 49.9201 90.2715 49.8577L90.0749 49.7953L89.6815 49.6601L89.4537 49.5717L89.1069 49.4365L88.874 49.3325L88.5531 49.1869L88.3201 49.0673L88.0147 48.9061L87.7818 48.7709C87.6886 48.7189 87.5903 48.6617 87.4971 48.5993L87.2694 48.4589L86.9951 48.2717L86.7776 48.1157L86.5137 47.9181L86.3066 47.7517L86.053 47.5437L85.8563 47.3721L85.613 47.1433L85.4267 46.9665C85.3439 46.8833 85.2662 46.8053 85.1937 46.7221C85.1213 46.6389 85.0747 46.6025 85.0178 46.5401C84.9608 46.4777 84.8625 46.3685 84.79 46.2801L84.6296 46.0929C84.5519 45.9993 84.4795 45.9057 84.407 45.8069L84.2672 45.6353C84.1844 45.5209 84.1016 45.4065 84.024 45.2869L83.9308 45.1517C83.8221 44.9905 83.7134 44.8293 83.615 44.6577L83.5477 44.5433C83.4753 44.4133 83.3976 44.2833 83.3252 44.1481C83.2527 44.0129 83.2631 44.0233 83.2268 43.9609C83.1906 43.8985 83.1129 43.7373 83.0612 43.6229C83.0094 43.5085 82.9939 43.4773 82.9628 43.4045L82.8231 43.0873L82.7299 42.8533C82.6885 42.7493 82.6471 42.6453 82.6109 42.5361C82.5746 42.4269 82.5539 42.3749 82.5281 42.2917C82.5022 42.2085 82.4556 42.0837 82.4245 41.9745C82.3935 41.8653 82.3779 41.8081 82.3521 41.7249C82.3262 41.6417 82.2951 41.5117 82.2693 41.4025L82.2071 41.1477C82.2071 41.0385 82.1606 40.9345 82.1399 40.8253L82.0933 40.5601C82.0933 40.4509 82.057 40.3417 82.0415 40.2377C82.026 40.1337 82.0156 40.0557 82.0053 39.9673C81.9949 39.8789 82.0053 39.7489 81.969 39.6397C81.9328 39.5305 81.969 39.4577 81.969 39.3693C81.969 39.2809 81.969 39.1457 81.969 39.0365C81.969 38.9273 81.969 38.8545 81.969 38.7661C81.969 38.6777 81.969 38.5373 81.969 38.4177V38.1629C81.969 38.0381 81.969 37.9185 81.969 37.7989V37.5493C81.969 37.4193 82.0001 37.2841 82.0156 37.1541C82.0312 37.0241 82.0156 37.0085 82.0156 36.9357C82.0415 36.7641 82.0726 36.5925 82.1036 36.4157V36.3169C82.1398 36.1141 82.1864 35.9165 82.233 35.7137L82.2796 35.5421C82.321 35.3965 82.3572 35.2509 82.3987 35.1053L82.4918 34.8349C82.5229 34.7309 82.5591 34.627 82.5954 34.523C82.6034 34.4927 82.6138 34.4632 82.6264 34.4345C82.6264 34.3877 82.6626 34.3462 82.6782 34.2994C82.7662 34.081 82.8542 33.8626 82.9525 33.6494C82.9991 33.5402 83.0508 33.4362 83.0974 33.3322C83.1906 33.145 83.2889 32.9578 83.3925 32.7758L83.5529 32.4846C83.6772 32.2766 83.8117 32.0738 83.9463 31.8762C84.0033 31.7878 84.0654 31.7046 84.1275 31.6214C84.2776 31.4134 84.4277 31.2106 84.5881 31.013C84.6357 30.9634 84.6807 30.9113 84.7227 30.857C84.8884 30.6628 85.0609 30.4756 85.2403 30.2954L85.3232 30.2122C85.5302 30.0042 85.7476 29.8014 85.9702 29.609L86.0582 29.531C86.2911 29.3386 86.5292 29.1514 86.7725 28.9746L86.8242 28.9382C87.6026 28.3801 88.4455 27.9191 89.3346 27.5654L89.4071 27.5342C89.6866 27.4267 89.9713 27.3279 90.2612 27.2378L90.3647 27.2066C90.6546 27.1234 90.9444 27.0454 91.2446 26.983H91.3016C91.5604 26.931 91.8192 26.8842 92.0935 26.8478L92.3109 26.8218C92.5697 26.7906 92.8285 26.7698 93.0873 26.7594H93.3721C93.6309 26.7594 93.8897 26.7594 94.1485 26.7594H94.3969C94.6454 26.7594 94.9145 26.7958 95.1475 26.8322H95.2458H95.282C95.5305 26.8634 95.7997 26.9102 96.0274 26.9622L96.2344 27.009L96.4725 27.061L96.8918 27.1754L96.9798 27.2014C97.2231 27.269 97.4612 27.3522 97.6941 27.4354L97.8597 27.4978C98.0875 27.5862 98.3152 27.6746 98.5326 27.7786C98.7552 27.8826 98.9778 27.9918 99.1952 28.1114C99.2469 28.136 99.297 28.1638 99.3453 28.1946C99.5627 28.3142 99.7697 28.4338 99.9768 28.569H100.018C100.21 28.6938 100.401 28.829 100.582 28.9642C100.629 28.9942 100.674 29.0272 100.717 29.063C100.908 29.2086 101.095 29.3542 101.276 29.5102C101.504 29.7051 101.778 29.8381 102.072 29.8966C102.365 29.955 102.669 29.937 102.954 29.8442C103.239 29.7515 103.495 29.587 103.699 29.3665C103.903 29.146 104.047 28.8768 104.118 28.5846L108.02 12.6519L56.9787 0.031555C56.3306 -0.129226 55.6572 -0.160023 54.9972 -0.0590771C54.3372 0.0418688 53.7034 0.272576 53.1323 0.619844C52.5611 0.967113 52.0637 1.42413 51.6686 1.96473C51.2734 2.50533 50.9883 3.1189 50.8295 3.77033L38.4637 54.2412L54.6028 58.3336C54.8861 58.3995 55.1813 58.3937 55.4618 58.3166C55.7423 58.2395 55.9993 58.0936 56.2097 57.892C56.4202 57.6904 56.5774 57.4394 56.6674 57.1615C56.7573 56.8837 56.7771 56.5878 56.725 56.3004Z" fill="#0068FF"/>
<mask id="path-2-inside-1_287_5952" fill="white">
<path d="M81.6688 82.3161C81.9328 82.3525 82.1865 82.3993 82.4504 82.4513L82.673 82.5033C82.8645 82.5449 83.0561 82.5969 83.2476 82.6489L83.4494 82.7061C83.6979 82.7789 83.9412 82.8569 84.1741 82.9453L84.2673 82.9817C84.4743 83.0597 84.6814 83.1481 84.8832 83.2365L85.0851 83.3301L85.6027 83.5901L85.7684 83.6785C85.9857 83.7981 86.198 83.9229 86.405 84.0581L86.524 84.1361C86.6897 84.2453 86.8553 84.3597 87.0417 84.4793L87.2228 84.6145L87.6783 84.9785L87.7715 85.0565C87.9991 85.2516 88.2727 85.3848 88.5661 85.4434C88.8595 85.5019 89.163 85.4839 89.4476 85.3911C89.7321 85.2982 89.9882 85.1336 90.1914 84.913C90.3945 84.6924 90.538 84.4231 90.608 84.1309L94.4849 68.2138L78.4389 64.241C78.1541 64.1712 77.8913 64.0306 77.6747 63.8321C77.4581 63.6336 77.2946 63.3836 77.1993 63.1051C77.1039 62.8265 77.0798 62.5284 77.1291 62.2381C77.1784 61.9477 77.2995 61.6745 77.4814 61.4434C77.4951 61.4274 77.5073 61.4099 77.5176 61.3914C77.6936 61.173 77.8541 60.9494 78.0352 60.7154L78.1853 60.497C78.3095 60.3046 78.4234 60.107 78.5373 59.9094L78.6615 59.6962C78.8013 59.431 78.941 59.1762 79.0601 58.8798C79.0601 58.8382 79.0963 58.7914 79.117 58.7498C79.2205 58.5107 79.3137 58.2611 79.4017 58.0115C79.4327 57.9231 79.4638 57.8346 79.4897 57.7463C79.5673 57.5175 79.6346 57.2835 79.6967 57.0495C79.6967 56.9611 79.7433 56.8727 79.764 56.7895L79.8106 56.5763C79.8469 56.4099 79.8779 56.2435 79.909 56.0563C79.909 56.0095 79.909 55.9627 79.9348 55.9211C79.9607 55.8795 79.9348 55.8171 79.9348 55.7651C79.9348 55.7131 79.9348 55.6403 79.9607 55.5727C79.9866 55.5051 79.997 55.3075 80.0073 55.1775V55.0059C80.0073 54.8707 80.0073 54.7355 80.0073 54.6055C80.0073 54.4755 80.0073 54.4859 80.0073 54.4287C80.0073 54.3715 80.0073 54.1791 80.0073 54.0595V53.8411C80.0073 53.7475 80.0073 53.6539 80.0073 53.5551C80.0073 53.4563 80.0073 53.3575 80.0073 53.2587C80.0073 53.1599 80.0073 53.2067 80.0073 53.1755C79.8459 51.0779 79.1344 49.0607 77.9452 47.329C76.756 45.5972 75.1315 44.2128 73.2369 43.3163L72.8073 43.1239L72.6831 43.0719L72.2742 42.9159L72.1034 42.8587L71.8342 42.7651L71.7514 42.7391L71.4253 42.6455L71.1509 42.5727C71.0422 42.5415 70.9336 42.5207 70.8197 42.4947L70.5505 42.4375L70.2141 42.3751L69.9449 42.3283L69.5981 42.2867H69.3445C69.2254 42.2867 69.1012 42.2867 68.9822 42.2607H68.7441H68.3455H68.1488C67.9521 42.2607 67.7554 42.2607 67.5587 42.2607H67.507C67.3258 42.2607 67.1498 42.2867 66.9893 42.3075L66.7927 42.3335L66.4096 42.3855L66.1767 42.4271L65.8351 42.4947L65.5918 42.5519L65.2709 42.6299L65.0224 42.7027L64.7119 42.7963L64.4634 42.8795L64.1684 42.9835L63.9199 43.0823L63.63 43.2019L63.3868 43.3111L63.1073 43.4463L62.8691 43.5659L62.5948 43.7115L62.3619 43.8467L62.0979 44.0079L61.8702 44.1535C61.7873 44.2107 61.6993 44.2627 61.6165 44.3251L61.394 44.4811L61.1507 44.6631L60.9333 44.8295L60.7004 45.0271L60.4933 45.2039L60.2656 45.4119L60.0689 45.5991L59.8515 45.8175L59.6651 46.0151L59.4581 46.2491L59.2769 46.4519L59.0802 46.6963L58.9146 46.9147L58.7282 47.1643C58.6765 47.2423 58.6195 47.3151 58.573 47.3879C58.5264 47.4607 58.4539 47.5647 58.397 47.6583C58.3401 47.7519 58.2986 47.8091 58.252 47.8871L58.0864 48.1679L57.957 48.4019C57.9001 48.5007 57.8535 48.5995 57.8017 48.6983C57.75 48.7971 57.7189 48.8543 57.6827 48.9323L57.5429 49.2495C57.5067 49.3275 57.4704 49.4055 57.4394 49.4835C57.4083 49.5615 57.3462 49.7071 57.3048 49.8215C57.2634 49.9359 57.2479 49.9723 57.2168 50.0503C57.1858 50.1283 57.134 50.3103 57.0926 50.4403C57.0512 50.5703 57.046 50.5703 57.0253 50.6327C56.9684 50.8303 56.9114 51.0331 56.8648 51.2307C56.7872 51.5427 56.7303 51.8495 56.6785 52.1563L56.6475 52.3539C56.606 52.6503 56.5698 52.9519 56.5491 53.2483C56.5464 53.2968 56.5464 53.3454 56.5491 53.3939C56.5491 53.6643 56.5491 53.9139 56.5491 54.2051V54.3611C56.5491 54.6523 56.575 54.9487 56.606 55.2347C56.606 55.2971 56.606 55.3595 56.606 55.4271C56.6423 55.7079 56.6785 55.9887 56.7354 56.2643C56.7354 56.2643 56.7354 56.2955 56.7354 56.3111C56.7862 56.5988 56.7649 56.8947 56.6736 57.1721C56.5823 57.4495 56.4238 57.6997 56.2123 57.9003C56.0008 58.1009 55.743 58.2456 55.4621 58.3212C55.1811 58.3969 54.8859 58.4013 54.6029 58.3338L38.5569 54.3611L26.1342 104.832C25.8138 106.147 26.0257 107.536 26.7235 108.694C27.4212 109.852 28.5477 110.685 29.8558 111.01L80.8976 123.63L84.8004 107.697C84.8715 107.402 84.8656 107.093 84.7835 106.801C84.7013 106.509 84.5455 106.243 84.3312 106.028C84.1169 105.814 83.8513 105.659 83.5599 105.578C83.2686 105.497 82.9613 105.492 82.6678 105.565C82.4711 105.612 82.2745 105.648 82.0726 105.685L81.9018 105.711L81.4618 105.773H81.2548L80.8251 105.81H80.6285C80.4421 105.81 80.2506 105.81 80.0591 105.81H80.0125C79.8055 105.81 79.5932 105.81 79.3862 105.81H79.1998L78.7547 105.768L78.5373 105.737C78.3924 105.737 78.2423 105.695 78.0973 105.669L77.8955 105.654C77.6832 105.612 77.4762 105.57 77.264 105.518C74.3414 104.791 71.8073 102.967 70.1829 100.42C68.5584 97.8735 67.9671 94.7983 68.5307 91.827C69.0942 88.8558 70.7697 86.2145 73.2125 84.4464C75.6554 82.6782 78.6798 81.9177 81.6637 82.3213L81.6688 82.3161Z"/>
</mask>
<path d="M81.6688 82.3161C81.9328 82.3525 82.1865 82.3993 82.4504 82.4513L82.673 82.5033C82.8645 82.5449 83.0561 82.5969 83.2476 82.6489L83.4494 82.7061C83.6979 82.7789 83.9412 82.8569 84.1741 82.9453L84.2673 82.9817C84.4743 83.0597 84.6814 83.1481 84.8832 83.2365L85.0851 83.3301L85.6027 83.5901L85.7684 83.6785C85.9857 83.7981 86.198 83.9229 86.405 84.0581L86.524 84.1361C86.6897 84.2453 86.8553 84.3597 87.0417 84.4793L87.2228 84.6145L87.6783 84.9785L87.7715 85.0565C87.9991 85.2516 88.2727 85.3848 88.5661 85.4434C88.8595 85.5019 89.163 85.4839 89.4476 85.3911C89.7321 85.2982 89.9882 85.1336 90.1914 84.913C90.3945 84.6924 90.538 84.4231 90.608 84.1309L94.4849 68.2138L78.4389 64.241C78.1541 64.1712 77.8913 64.0306 77.6747 63.8321C77.4581 63.6336 77.2946 63.3836 77.1993 63.1051C77.1039 62.8265 77.0798 62.5284 77.1291 62.2381C77.1784 61.9477 77.2995 61.6745 77.4814 61.4434C77.4951 61.4274 77.5073 61.4099 77.5176 61.3914C77.6936 61.173 77.8541 60.9494 78.0352 60.7154L78.1853 60.497C78.3095 60.3046 78.4234 60.107 78.5373 59.9094L78.6615 59.6962C78.8013 59.431 78.941 59.1762 79.0601 58.8798C79.0601 58.8382 79.0963 58.7914 79.117 58.7498C79.2205 58.5107 79.3137 58.2611 79.4017 58.0115C79.4327 57.9231 79.4638 57.8346 79.4897 57.7463C79.5673 57.5175 79.6346 57.2835 79.6967 57.0495C79.6967 56.9611 79.7433 56.8727 79.764 56.7895L79.8106 56.5763C79.8469 56.4099 79.8779 56.2435 79.909 56.0563C79.909 56.0095 79.909 55.9627 79.9348 55.9211C79.9607 55.8795 79.9348 55.8171 79.9348 55.7651C79.9348 55.7131 79.9348 55.6403 79.9607 55.5727C79.9866 55.5051 79.997 55.3075 80.0073 55.1775V55.0059C80.0073 54.8707 80.0073 54.7355 80.0073 54.6055C80.0073 54.4755 80.0073 54.4859 80.0073 54.4287C80.0073 54.3715 80.0073 54.1791 80.0073 54.0595V53.8411C80.0073 53.7475 80.0073 53.6539 80.0073 53.5551C80.0073 53.4563 80.0073 53.3575 80.0073 53.2587C80.0073 53.1599 80.0073 53.2067 80.0073 53.1755C79.8459 51.0779 79.1344 49.0607 77.9452 47.329C76.756 45.5972 75.1315 44.2128 73.2369 43.3163L72.8073 43.1239L72.6831 43.0719L72.2742 42.9159L72.1034 42.8587L71.8342 42.7651L71.7514 42.7391L71.4253 42.6455L71.1509 42.5727C71.0422 42.5415 70.9336 42.5207 70.8197 42.4947L70.5505 42.4375L70.2141 42.3751L69.9449 42.3283L69.5981 42.2867H69.3445C69.2254 42.2867 69.1012 42.2867 68.9822 42.2607H68.7441H68.3455H68.1488C67.9521 42.2607 67.7554 42.2607 67.5587 42.2607H67.507C67.3258 42.2607 67.1498 42.2867 66.9893 42.3075L66.7927 42.3335L66.4096 42.3855L66.1767 42.4271L65.8351 42.4947L65.5918 42.5519L65.2709 42.6299L65.0224 42.7027L64.7119 42.7963L64.4634 42.8795L64.1684 42.9835L63.9199 43.0823L63.63 43.2019L63.3868 43.3111L63.1073 43.4463L62.8691 43.5659L62.5948 43.7115L62.3619 43.8467L62.0979 44.0079L61.8702 44.1535C61.7873 44.2107 61.6993 44.2627 61.6165 44.3251L61.394 44.4811L61.1507 44.6631L60.9333 44.8295L60.7004 45.0271L60.4933 45.2039L60.2656 45.4119L60.0689 45.5991L59.8515 45.8175L59.6651 46.0151L59.4581 46.2491L59.2769 46.4519L59.0802 46.6963L58.9146 46.9147L58.7282 47.1643C58.6765 47.2423 58.6195 47.3151 58.573 47.3879C58.5264 47.4607 58.4539 47.5647 58.397 47.6583C58.3401 47.7519 58.2986 47.8091 58.252 47.8871L58.0864 48.1679L57.957 48.4019C57.9001 48.5007 57.8535 48.5995 57.8017 48.6983C57.75 48.7971 57.7189 48.8543 57.6827 48.9323L57.5429 49.2495C57.5067 49.3275 57.4704 49.4055 57.4394 49.4835C57.4083 49.5615 57.3462 49.7071 57.3048 49.8215C57.2634 49.9359 57.2479 49.9723 57.2168 50.0503C57.1858 50.1283 57.134 50.3103 57.0926 50.4403C57.0512 50.5703 57.046 50.5703 57.0253 50.6327C56.9684 50.8303 56.9114 51.0331 56.8648 51.2307C56.7872 51.5427 56.7303 51.8495 56.6785 52.1563L56.6475 52.3539C56.606 52.6503 56.5698 52.9519 56.5491 53.2483C56.5464 53.2968 56.5464 53.3454 56.5491 53.3939C56.5491 53.6643 56.5491 53.9139 56.5491 54.2051V54.3611C56.5491 54.6523 56.575 54.9487 56.606 55.2347C56.606 55.2971 56.606 55.3595 56.606 55.4271C56.6423 55.7079 56.6785 55.9887 56.7354 56.2643C56.7354 56.2643 56.7354 56.2955 56.7354 56.3111C56.7862 56.5988 56.7649 56.8947 56.6736 57.1721C56.5823 57.4495 56.4238 57.6997 56.2123 57.9003C56.0008 58.1009 55.743 58.2456 55.4621 58.3212C55.1811 58.3969 54.8859 58.4013 54.6029 58.3338L38.5569 54.3611L26.1342 104.832C25.8138 106.147 26.0257 107.536 26.7235 108.694C27.4212 109.852 28.5477 110.685 29.8558 111.01L80.8976 123.63L84.8004 107.697C84.8715 107.402 84.8656 107.093 84.7835 106.801C84.7013 106.509 84.5455 106.243 84.3312 106.028C84.1169 105.814 83.8513 105.659 83.5599 105.578C83.2686 105.497 82.9613 105.492 82.6678 105.565C82.4711 105.612 82.2745 105.648 82.0726 105.685L81.9018 105.711L81.4618 105.773H81.2548L80.8251 105.81H80.6285C80.4421 105.81 80.2506 105.81 80.0591 105.81H80.0125C79.8055 105.81 79.5932 105.81 79.3862 105.81H79.1998L78.7547 105.768L78.5373 105.737C78.3924 105.737 78.2423 105.695 78.0973 105.669L77.8955 105.654C77.6832 105.612 77.4762 105.57 77.264 105.518C74.3414 104.791 71.8073 102.967 70.1829 100.42C68.5584 97.8735 67.9671 94.7983 68.5307 91.827C69.0942 88.8558 70.7697 86.2145 73.2125 84.4464C75.6554 82.6782 78.6798 81.9177 81.6637 82.3213L81.6688 82.3161Z" stroke="black" stroke-width="4" mask="url(#path-2-inside-1_287_5952)"/>
<path d="M133.596 77.8697L133.435 77.8281C133.164 77.7617 132.88 77.7654 132.61 77.8389C132.34 77.9124 132.093 78.0533 131.892 78.2485C131.691 78.4436 131.543 78.6867 131.461 78.9551C131.378 79.2234 131.365 79.5084 131.422 79.7833C131.422 79.8717 131.458 79.9601 131.474 80.0485C131.489 80.1369 131.515 80.2825 131.53 80.4021C131.546 80.5217 131.53 80.5633 131.567 80.6413C131.603 80.7193 131.567 80.8805 131.608 81.0001C131.65 81.1197 131.608 81.1613 131.608 81.2393C131.608 81.3173 131.608 81.4837 131.608 81.6085C131.608 81.7333 131.608 81.7645 131.608 81.8425C131.608 81.9205 131.608 82.1129 131.608 82.2481V82.4457C131.608 82.6398 131.598 82.8322 131.577 83.0229V83.0541C131.577 83.2569 131.541 83.4649 131.515 83.6677L131.484 83.8653C131.484 84.0005 131.442 84.1409 131.417 84.2813L131.37 84.5153C131.37 84.6401 131.318 84.7701 131.287 84.8949L131.225 85.1549L131.132 85.4825L131.054 85.7425C131.054 85.7997 131.023 85.8621 131.002 85.9193C130.982 85.9765 130.956 86.0389 130.935 86.1013L130.873 86.2729C130.827 86.4133 130.77 86.5485 130.718 86.6837L130.661 86.8189C130.599 86.9645 130.531 87.1101 130.464 87.2505L130.418 87.3597C130.34 87.5105 130.262 87.6665 130.18 87.8173L130.143 87.8849C130.06 88.0409 129.967 88.1969 129.874 88.3477C129.781 88.4985 129.714 88.6025 129.631 88.7221L129.584 88.7949C128.493 90.4031 127.026 91.718 125.311 92.6245C123.597 93.531 121.687 94.0015 119.75 93.9948H119.387H119.211L118.797 93.9636H118.621C118.487 93.9636 118.347 93.9376 118.212 93.9168L118.016 93.8856L117.809 93.8544L117.658 93.8232L117.353 93.7608L117.043 93.688L116.737 93.6048L116.437 93.5216L116.09 93.4124L115.904 93.3448L115.521 93.1992L115.35 93.1316L114.972 92.9652L114.812 92.8924L114.485 92.7312C112.76 91.8393 111.28 90.5338 110.177 88.9302C109.074 87.3266 108.381 85.4744 108.16 83.5377C108.16 83.5065 108.16 83.4805 108.16 83.4493C108.16 83.3037 108.16 83.1581 108.124 83.0073C108.088 82.8565 108.124 82.6485 108.098 82.4873V82.4093C108.098 82.2394 108.098 82.0661 108.098 81.8893C108.101 81.8512 108.101 81.813 108.098 81.7749C108.098 81.6137 108.098 81.4577 108.129 81.3017C108.127 81.2532 108.127 81.2046 108.129 81.1561C108.129 81.0105 108.16 80.8649 108.181 80.7193C108.181 80.6569 108.181 80.5945 108.181 80.5373C108.181 80.4801 108.217 80.3189 108.238 80.2045C108.259 80.0901 108.295 79.8821 108.331 79.7209C108.331 79.6481 108.362 79.5701 108.383 79.4921C108.38 79.461 108.38 79.4297 108.383 79.3985C108.383 79.3465 108.414 79.2945 108.429 79.2373C108.492 79.0033 108.559 78.7693 108.631 78.5405L108.724 78.2701C108.812 78.0205 108.906 77.7761 109.009 77.5317C109.029 77.4911 109.046 77.4494 109.061 77.4069C109.185 77.1261 109.32 76.8557 109.465 76.5905C109.501 76.5177 109.542 76.4553 109.579 76.3877C109.698 76.1849 109.817 75.9821 109.941 75.7897L110.086 75.5661C110.246 75.3373 110.407 75.1085 110.578 74.8901L110.614 74.8433L110.686 74.7549C110.867 74.5386 110.989 74.2798 111.043 74.0028C111.096 73.7257 111.078 73.4396 110.991 73.1713C110.904 72.903 110.751 72.6613 110.546 72.469C110.34 72.2766 110.089 72.1399 109.817 72.0718L109.661 72.0302L94.4849 68.2134L90.5821 84.1461C90.5121 84.4383 90.3687 84.7076 90.1655 84.9282C89.9623 85.1488 89.7062 85.3134 89.4217 85.4063C89.1371 85.4991 88.8337 85.5171 88.5402 85.4585C88.2468 85.4 87.9732 85.2668 87.7456 85.0717L87.6524 84.9937L87.1969 84.6297L87.0158 84.4945C86.8553 84.3749 86.6897 84.2605 86.4982 84.1513L86.3791 84.0733C86.1721 83.9381 85.9598 83.8133 85.7425 83.6937L85.5768 83.6053L85.0592 83.3453L84.8574 83.2517C84.6555 83.1633 84.4484 83.0749 84.2414 82.9969L84.1482 82.9605C83.9153 82.8721 83.672 82.7941 83.4236 82.7213L83.2735 82.6797C83.0664 82.6225 82.8594 82.5653 82.6523 82.5185L82.4246 82.4665C82.1658 82.4145 81.9069 82.3677 81.643 82.3313C78.6591 81.9277 75.6347 82.6882 73.1919 84.4564C70.749 86.2245 69.0735 88.8658 68.51 91.837C67.9465 94.8083 68.5377 97.8835 70.1622 100.43C71.7866 102.977 74.3207 104.801 77.2433 105.528C77.4555 105.58 77.6625 105.622 77.8748 105.664L78.0715 105.695C78.2164 105.721 78.3665 105.747 78.5114 105.762L78.7288 105.794L79.1739 105.835H79.3603C79.5674 105.835 79.7796 105.835 79.9866 105.835H80.0332C80.2247 105.835 80.4162 105.835 80.6026 105.835H80.7993L81.2289 105.799H81.4359L81.8759 105.736L82.0467 105.71C82.2486 105.674 82.4453 105.638 82.642 105.591C82.9406 105.53 83.2497 105.546 83.5405 105.638C83.8313 105.729 84.0943 105.893 84.305 106.114C84.5158 106.335 84.6675 106.606 84.7459 106.902C84.8244 107.198 84.8271 107.509 84.7538 107.806L80.8717 123.655L130.309 135.875C131.617 136.199 133 135.987 134.153 135.287C135.306 134.587 136.135 133.456 136.458 132.142L148.824 81.6709L133.596 77.8697Z" fill="#003D96"/>
<path d="M133.596 77.8697L133.435 77.8281C133.164 77.7617 132.88 77.7654 132.61 77.8389C132.34 77.9124 132.093 78.0533 131.892 78.2485C131.691 78.4436 131.543 78.6867 131.461 78.9551C131.378 79.2234 131.365 79.5084 131.422 79.7833C131.422 79.8717 131.458 79.9601 131.474 80.0485C131.489 80.1369 131.515 80.2825 131.53 80.4021C131.546 80.5217 131.53 80.5633 131.567 80.6413C131.603 80.7193 131.567 80.8805 131.608 81.0001C131.65 81.1197 131.608 81.1613 131.608 81.2393C131.608 81.3173 131.608 81.4837 131.608 81.6085C131.608 81.7333 131.608 81.7645 131.608 81.8425C131.608 81.9205 131.608 82.1129 131.608 82.2481V82.4457C131.608 82.6398 131.598 82.8322 131.577 83.0229V83.0541C131.577 83.2569 131.541 83.4649 131.515 83.6677L131.484 83.8653C131.484 84.0005 131.442 84.1409 131.417 84.2813L131.37 84.5153C131.37 84.6401 131.318 84.7701 131.287 84.8949L131.225 85.1549L131.132 85.4825L131.054 85.7425C131.054 85.7997 131.023 85.8621 131.002 85.9193C130.982 85.9765 130.956 86.0389 130.935 86.1013L130.873 86.2729C130.827 86.4133 130.77 86.5485 130.718 86.6837L130.661 86.8189C130.599 86.9645 130.531 87.1101 130.464 87.2505L130.418 87.3597C130.34 87.5105 130.262 87.6665 130.18 87.8173L130.143 87.8849C130.06 88.0409 129.967 88.1969 129.874 88.3477C129.781 88.4985 129.714 88.6025 129.631 88.7221L129.584 88.7949C128.493 90.4031 127.026 91.718 125.311 92.6245C123.597 93.531 121.687 94.0015 119.75 93.9948H119.387H119.211L118.797 93.9636H118.621C118.487 93.9636 118.347 93.9376 118.212 93.9168L118.016 93.8856L117.809 93.8544L117.658 93.8232L117.353 93.7608L117.043 93.688L116.737 93.6048L116.437 93.5216L116.09 93.4124L115.904 93.3448L115.521 93.1992L115.35 93.1316L114.972 92.9652L114.812 92.8924L114.485 92.7312C112.76 91.8393 111.28 90.5338 110.177 88.9302C109.074 87.3266 108.381 85.4744 108.16 83.5377C108.16 83.5065 108.16 83.4805 108.16 83.4493C108.16 83.3037 108.16 83.1581 108.124 83.0073C108.088 82.8565 108.124 82.6485 108.098 82.4873V82.4093C108.098 82.2394 108.098 82.0661 108.098 81.8893C108.101 81.8512 108.101 81.813 108.098 81.7749C108.098 81.6137 108.098 81.4577 108.129 81.3017C108.127 81.2532 108.127 81.2046 108.129 81.1561C108.129 81.0105 108.16 80.8649 108.181 80.7193C108.181 80.6569 108.181 80.5945 108.181 80.5373C108.181 80.4801 108.217 80.3189 108.238 80.2045C108.259 80.0901 108.295 79.8821 108.331 79.7209C108.331 79.6481 108.362 79.5701 108.383 79.4921C108.38 79.461 108.38 79.4297 108.383 79.3985C108.383 79.3465 108.414 79.2945 108.429 79.2373C108.492 79.0033 108.559 78.7693 108.631 78.5405L108.724 78.2701C108.812 78.0205 108.906 77.7761 109.009 77.5317C109.029 77.4911 109.046 77.4494 109.061 77.4069C109.185 77.1261 109.32 76.8557 109.465 76.5905C109.501 76.5177 109.542 76.4553 109.579 76.3877C109.698 76.1849 109.817 75.9821 109.941 75.7897L110.086 75.5661C110.246 75.3373 110.407 75.1085 110.578 74.8901L110.614 74.8433L110.686 74.7549C110.867 74.5386 110.989 74.2798 111.043 74.0028C111.096 73.7257 111.078 73.4396 110.991 73.1713C110.904 72.903 110.751 72.6613 110.546 72.469C110.34 72.2766 110.089 72.1399 109.817 72.0718L109.661 72.0302L94.4849 68.2134L90.5821 84.1461C90.5121 84.4383 90.3687 84.7076 90.1655 84.9282C89.9623 85.1488 89.7062 85.3134 89.4217 85.4063C89.1371 85.4991 88.8337 85.5171 88.5402 85.4585C88.2468 85.4 87.9732 85.2668 87.7456 85.0717L87.6524 84.9937L87.1969 84.6297L87.0158 84.4945C86.8553 84.3749 86.6897 84.2605 86.4982 84.1513L86.3791 84.0733C86.1721 83.9381 85.9598 83.8133 85.7425 83.6937L85.5768 83.6053L85.0592 83.3453L84.8574 83.2517C84.6555 83.1633 84.4484 83.0749 84.2414 82.9969L84.1482 82.9605C83.9153 82.8721 83.672 82.7941 83.4236 82.7213L83.2735 82.6797C83.0664 82.6225 82.8594 82.5653 82.6523 82.5185L82.4246 82.4665C82.1658 82.4145 81.9069 82.3677 81.643 82.3313C78.6591 81.9277 75.6347 82.6882 73.1919 84.4564C70.749 86.2245 69.0735 88.8658 68.51 91.837C67.9465 94.8083 68.5377 97.8835 70.1622 100.43C71.7866 102.977 74.3207 104.801 77.2433 105.528C77.4555 105.58 77.6625 105.622 77.8748 105.664L78.0715 105.695C78.2164 105.721 78.3665 105.747 78.5114 105.762L78.7288 105.794L79.1739 105.835H79.3603C79.5674 105.835 79.7796 105.835 79.9866 105.835H80.0332C80.2247 105.835 80.4162 105.835 80.6026 105.835H80.7993L81.2289 105.799H81.4359L81.8759 105.736L82.0467 105.71C82.2486 105.674 82.4453 105.638 82.642 105.591C82.9406 105.53 83.2497 105.546 83.5405 105.638C83.8313 105.729 84.0943 105.893 84.305 106.114C84.5158 106.335 84.6675 106.606 84.7459 106.902C84.8244 107.198 84.8271 107.509 84.7538 107.806L80.8717 123.655L130.309 135.875C131.617 136.199 133 135.987 134.153 135.287C135.306 134.587 136.135 133.456 136.458 132.142L148.824 81.6709L133.596 77.8697Z" fill="#0068FF"/>
<path d="M166.334 15.7251L116.897 3.5L112.994 19.4327C112.923 19.725 112.779 19.9941 112.576 20.2146C112.372 20.4351 112.115 20.5996 111.831 20.6924C111.546 20.7851 111.242 20.8031 110.948 20.7447C110.655 20.6862 110.381 20.5532 110.153 20.3583L109.599 19.9111L109.459 19.8123C109.276 19.6771 109.09 19.5471 108.9 19.4223L108.853 19.3911C108.652 19.2611 108.439 19.1363 108.227 19.0167L108.072 18.9335C107.854 18.8139 107.637 18.7047 107.409 18.6007H107.383C107.166 18.5019 106.938 18.4083 106.716 18.3199L106.55 18.2575C106.312 18.1743 106.074 18.0911 105.836 18.0235H105.743C105.53 17.9611 105.308 17.9091 105.085 17.8571L104.883 17.8103C104.635 17.7583 104.366 17.7167 104.133 17.6803H104.102H104.003C103.75 17.6439 103.486 17.6231 103.248 17.6075H102.999C102.74 17.6075 102.482 17.6075 102.228 17.6075H101.938C101.679 17.6075 101.42 17.6387 101.167 17.6699L100.944 17.7011C100.68 17.7375 100.427 17.7791 100.152 17.8311H100.095C99.8003 17.8935 99.5053 17.9715 99.2206 18.0547L99.1119 18.0859C98.8272 18.1743 98.5374 18.2731 98.2579 18.3875L98.1854 18.4135C97.2963 18.7672 96.4533 19.2282 95.6749 19.7863L95.6284 19.8227C95.3799 19.9995 95.1418 20.1867 94.9141 20.3843L94.8261 20.4571C94.6035 20.6495 94.3861 20.8523 94.1739 21.0603L94.0962 21.1487C93.9151 21.3255 93.7494 21.5179 93.5786 21.7103C93.531 21.7599 93.4861 21.8119 93.444 21.8663C93.2784 22.0587 93.1283 22.2615 92.9782 22.4695L92.797 22.7243C92.6624 22.9219 92.533 23.1247 92.4088 23.3327L92.2432 23.6239C92.1396 23.8059 92.0465 23.9931 91.9533 24.1803C91.9015 24.2843 91.8498 24.3935 91.8032 24.4975C91.7049 24.7107 91.6169 24.9291 91.534 25.1475C91.534 25.1943 91.4926 25.2359 91.4771 25.2827L91.4461 25.3711C91.4098 25.4751 91.3736 25.5791 91.3425 25.6831C91.3115 25.7871 91.2804 25.8651 91.2545 25.9535C91.2287 26.0419 91.1717 26.2447 91.1303 26.3903L91.0837 26.5619C91.0371 26.7699 90.9905 26.9727 90.9491 27.1807V27.2847C90.9181 27.4563 90.887 27.6227 90.8663 27.8047C90.8663 27.8775 90.8663 27.9503 90.8663 28.0231C90.8663 28.0959 90.8353 28.2883 90.8249 28.4183C90.8146 28.5483 90.8249 28.5846 90.8249 28.6678C90.8249 28.751 90.8249 28.907 90.8249 29.0318C90.8249 29.1566 90.8249 29.2034 90.8249 29.2918C90.8249 29.3802 90.8249 29.5206 90.8249 29.635C90.8249 29.7494 90.8249 29.817 90.8249 29.9054C90.8249 29.9938 90.8249 30.129 90.8249 30.2382C90.8249 30.3474 90.8249 30.4202 90.8249 30.5086C90.8249 30.597 90.8249 30.727 90.8612 30.8414C90.8974 30.9558 90.8612 31.0182 90.8974 31.1066C90.9336 31.195 90.9284 31.3198 90.9491 31.429L90.9957 31.6942C90.9957 31.8034 91.0423 31.9074 91.063 32.0166L91.1251 32.2766C91.1251 32.3806 91.1821 32.4846 91.2079 32.5938L91.2856 32.8486C91.3167 32.9526 91.3477 33.0566 91.3839 33.1606C91.4202 33.2646 91.4409 33.327 91.4667 33.405C91.4926 33.483 91.5444 33.6182 91.5858 33.7222L91.679 33.9562L91.8188 34.2786C91.855 34.3462 91.886 34.4242 91.9171 34.4918L92.0879 34.8298L92.1811 35.017C92.2535 35.1522 92.3312 35.2822 92.4088 35.4174L92.4709 35.5318L92.7867 36.0258L92.8799 36.1558C92.9627 36.2754 93.0403 36.3898 93.1283 36.5042L93.2629 36.6758C93.3353 36.7746 93.413 36.8734 93.4906 36.967L93.6459 37.149C93.7236 37.2374 93.796 37.3258 93.8737 37.409L94.0497 37.5962L94.2826 37.8354L94.4689 38.0122L94.7122 38.241L94.9089 38.4126L95.1625 38.6258L95.3747 38.787L95.6336 38.9846L95.8561 39.1406L96.1304 39.3278L96.353 39.4734L96.6429 39.645L96.8758 39.775L97.176 39.9362L97.409 40.0558L97.7299 40.2014L97.968 40.3054C98.0819 40.3574 98.1957 40.399 98.3096 40.4458L98.5374 40.5342L98.9307 40.6642L99.1274 40.7266C99.3241 40.789 99.526 40.8462 99.733 40.893C99.9401 40.9398 100.152 40.9918 100.359 41.0334L100.561 41.0646C100.706 41.0906 100.851 41.1166 101.001 41.1322L101.219 41.1634L101.664 41.205H101.85C102.057 41.205 102.264 41.205 102.471 41.231H102.523C102.714 41.231 102.901 41.231 103.092 41.231H103.289L103.713 41.1946H103.926L104.36 41.1322L104.536 41.1062C104.733 41.0698 104.935 41.0334 105.132 40.9866C105.43 40.9273 105.739 40.9445 106.029 41.0365C106.319 41.1285 106.581 41.2924 106.792 41.5131C107.002 41.7338 107.154 42.0042 107.233 42.2993C107.312 42.5945 107.315 42.9048 107.244 43.2018L103.362 59.0461L118.626 62.8213L118.781 62.8629C119.053 62.9317 119.304 63.0689 119.508 63.2615C119.713 63.4541 119.866 63.6959 119.953 63.9641C120.039 64.2323 120.056 64.5182 120.002 64.7949C119.949 65.0716 119.826 65.3301 119.646 65.546L119.578 65.6344L119.542 65.6812C119.366 65.8996 119.206 66.1284 119.024 66.3572L118.874 66.5808C118.75 66.7784 118.631 66.976 118.517 67.1736L118.398 67.3816C118.258 67.6468 118.119 67.9016 118 68.198C117.98 68.2387 117.963 68.2803 117.948 68.3228C117.839 68.5672 117.746 68.8116 117.658 69.0664C117.627 69.1548 117.596 69.2432 117.57 69.3316C117.498 69.5552 117.43 69.7736 117.373 70.0024C117.373 70.096 117.316 70.1896 117.296 70.2884L117.249 70.512C117.213 70.6732 117.182 70.8344 117.151 71.0008C117.12 71.1672 117.114 71.2192 117.099 71.3284C117.083 71.4376 117.099 71.448 117.073 71.5104C117.052 71.656 117.037 71.8016 117.026 71.9472V72.0928C117.026 72.2488 117.026 72.41 117.026 72.566C117.024 72.6058 117.024 72.6458 117.026 72.6856C117.026 72.8572 117.026 73.0288 117.026 73.2056V73.2836C117.026 73.4656 117.026 73.6476 117.026 73.8036C117.026 73.9596 117.052 74.1 117.068 74.2508C117.068 74.2508 117.068 74.3028 117.068 74.334C117.298 76.2685 117.995 78.1172 119.098 79.7195C120.201 81.3218 121.678 82.629 123.398 83.5275C123.502 83.5847 123.611 83.6367 123.719 83.6887L123.88 83.7615L124.263 83.9279L124.428 83.9955L124.811 84.1411L125.003 84.2087L125.345 84.3179L125.65 84.4063L125.955 84.4843L126.261 84.5571L126.571 84.6195L126.923 84.6819L127.125 84.7131L127.529 84.7651H127.705C127.845 84.7651 127.984 84.7651 128.124 84.7963H128.295H128.657C130.595 84.8021 132.504 84.3313 134.218 83.4248C135.932 82.5183 137.4 81.2039 138.492 79.5964L138.538 79.5288C138.621 79.404 138.699 79.2792 138.777 79.1544C138.854 79.0296 138.963 78.8424 139.051 78.6864C139.061 78.6628 139.073 78.6402 139.087 78.6188L139.32 78.1612C139.335 78.1238 139.352 78.0873 139.372 78.052C139.439 77.9116 139.501 77.766 139.563 77.6204C139.563 77.5788 139.6 77.532 139.62 77.4852C139.677 77.35 139.729 77.2148 139.781 77.0744L139.843 76.9028C139.884 76.7832 139.92 76.6636 139.957 76.544C139.993 76.4244 140.014 76.3724 140.04 76.2892C140.065 76.206 140.096 76.0656 140.128 75.9564C140.159 75.8472 140.174 75.7848 140.195 75.6964L140.272 75.3168C140.272 75.2388 140.309 75.1608 140.324 75.0828L140.386 74.6668L140.417 74.4692C140.442 74.2681 140.462 74.0653 140.479 73.8608C140.477 73.8488 140.477 73.8363 140.479 73.8244C140.479 73.632 140.48 73.4396 140.505 73.2524V72.644C140.505 72.566 140.505 72.488 140.505 72.41C140.505 72.332 140.505 72.1656 140.505 72.046C140.505 71.9264 140.505 71.8796 140.505 71.8016C140.505 71.7236 140.48 71.5624 140.464 71.448L140.433 71.2036L140.371 70.85C140.371 70.7616 140.34 70.6732 140.319 70.59C140.261 70.3147 140.274 70.0291 140.356 69.76C140.437 69.4909 140.586 69.247 140.787 69.0512C140.988 68.8554 141.235 68.714 141.506 68.6403C141.776 68.5665 142.06 68.5629 142.333 68.6296L142.493 68.6712L157.69 72.3736L170.056 21.9027C170.378 20.5877 170.166 19.1982 169.468 18.0397C168.771 16.8812 167.643 16.0486 166.334 15.7251Z" fill="#ED1C24"/>
<path d="M154.932 29.8947C146.091 19.2348 136.816 35.9631 136.816 35.9631C136.816 35.9631 136.298 16.77 123.554 22.1364C113.389 26.416 123.037 45.2658 131.572 54.6986C131.723 54.866 131.921 54.9842 132.14 55.038C132.358 55.0917 132.588 55.0785 132.799 55.0002C144.709 50.6218 161.822 38.2043 154.932 29.8947Z" fill="#FFFFFB"/>
</g>
<defs>
<clipPath id="clip0_287_5952">
<rect width="144.207" height="136" fill="white" transform="translate(26)"/>
</clipPath>
</defs>
</svg>
