<svg width="196" height="136" viewBox="0 0 196 136" fill="none" xmlns="http://www.w3.org/2000/svg">
<g clip-path="url(#clip0_287_5952)">
<circle cx="105.764" cy="69.6583" r="19.9024" fill="#ED1C24"/>
<circle cx="86.9675" cy="121.626" r="13.2683" fill="#ED1C24"/>
<ellipse cx="147.228" cy="77.9511" rx="9.39837" ry="9.39837" fill="#ED1C24"/>
<circle cx="52.6911" cy="21.0082" r="16.5854" fill="#0068FF"/>
<circle cx="141.7" cy="40.3578" r="11.6098" fill="#0068FF"/>
<path d="M105.201 90.3984C100.481 90.3961 95.897 88.8238 92.1711 85.9297C88.4452 83.0356 85.7899 78.9845 84.6243 74.4156C84.541 74.0862 84.5917 73.7373 84.7653 73.4452C84.9388 73.153 85.221 72.9414 85.5503 72.8567C85.7136 72.8106 85.8846 72.7982 86.0529 72.8202C86.2212 72.8423 86.3832 72.8982 86.5292 72.9847C86.6751 73.0713 86.8019 73.1865 86.9019 73.3236C87.0019 73.4606 87.0729 73.6164 87.1107 73.7817C87.9071 76.9052 89.5 79.7693 91.7342 82.0947C93.9683 84.4201 96.7674 86.1276 99.8587 87.0506C102.95 87.9736 106.228 88.0807 109.373 87.3615C112.518 86.6423 115.423 85.1212 117.804 82.9466C118.061 82.7539 118.381 82.6643 118.7 82.6953C119.02 82.7263 119.317 82.8757 119.532 83.1141C119.747 83.3525 119.865 83.6627 119.862 83.9836C119.86 84.3045 119.737 84.6129 119.519 84.8481C115.61 88.4229 110.501 90.4034 105.201 90.3984ZM122.845 79.7946C122.63 79.7922 122.419 79.7394 122.228 79.6404C121.933 79.4805 121.713 79.2119 121.614 78.8919C121.514 78.5719 121.544 78.2258 121.697 77.9274C123.003 75.4856 123.75 72.784 123.883 70.0183C124.016 67.2527 123.531 64.4921 122.464 61.9366C121.398 59.381 119.775 57.0945 117.715 55.2426C115.655 53.3906 113.208 52.0196 110.552 51.2289C107.896 50.4381 105.097 50.2474 102.358 50.6705C99.6187 51.0937 97.0082 52.1201 94.7152 53.6754C92.4223 55.2307 90.5042 57.276 89.1 59.6632C87.6958 62.0503 86.8406 64.7196 86.5963 67.4777C86.5615 67.8172 86.3947 68.1295 86.1317 68.3474C85.8687 68.5653 85.5306 68.6713 85.1902 68.6425C85.0233 68.6275 84.861 68.5796 84.7127 68.5016C84.5644 68.4236 84.4331 68.317 84.3263 68.188C84.2195 68.059 84.1393 67.9101 84.0904 67.75C84.0415 67.5898 84.0248 67.4216 84.0413 67.255C84.3389 64.1266 85.3276 61.1031 86.936 58.4025C88.5445 55.7019 90.7326 53.3915 93.3428 51.6378C95.9529 49.8841 98.9201 48.7308 102.03 48.2611C105.14 47.7914 108.316 48.0169 111.329 48.9214C114.341 49.826 117.115 51.387 119.451 53.4919C121.786 55.5968 123.625 58.1932 124.835 61.094C126.045 63.9947 126.596 67.1275 126.447 70.2665C126.299 73.4055 125.455 76.4725 123.977 79.2464C123.851 79.4269 123.681 79.5721 123.483 79.6681C123.285 79.7641 123.065 79.8077 122.845 79.7946Z" fill="black"/>
<path d="M105.2 27.8375C104.669 27.8375 104.137 27.8375 103.623 27.7518C103.452 27.7361 103.287 27.6864 103.136 27.6059C102.985 27.5253 102.851 27.4155 102.743 27.2828C102.635 27.15 102.555 26.9971 102.507 26.833C102.459 26.6689 102.444 26.4968 102.464 26.3269C102.483 26.157 102.536 25.9927 102.62 25.8436C102.704 25.6945 102.817 25.5636 102.952 25.4585C103.087 25.3535 103.241 25.2765 103.407 25.232C103.572 25.1875 103.745 25.1764 103.914 25.1994C104.342 25.225 104.772 25.225 105.2 25.1994C107.892 25.2127 110.502 24.2696 112.562 22.5386C114.623 20.8075 116 18.4012 116.449 15.7493C116.898 13.0973 116.388 10.3723 115.012 8.06084C113.635 5.74937 111.481 4.00189 108.934 3.1304C106.387 2.25891 103.613 2.32015 101.107 3.30318C98.6015 4.2862 96.5268 6.12702 95.2539 8.49697C93.981 10.8669 93.5926 13.6117 94.1581 16.2413C94.7237 18.8709 96.2063 21.2141 98.3413 22.8525C98.5817 23.0614 98.7371 23.3511 98.7782 23.6668C98.8192 23.9824 98.7431 24.3022 98.5642 24.5656C98.4618 24.6998 98.3336 24.8123 98.1871 24.8964C98.0405 24.9805 97.8786 25.0345 97.7109 25.0553C97.5432 25.076 97.373 25.0631 97.2104 25.0172C97.0477 24.9714 96.8959 24.8935 96.7638 24.7883C94.1561 22.7774 92.3476 19.907 91.6604 16.6884C90.9733 13.4697 91.4521 10.1119 93.0117 7.21311C94.5712 4.31428 97.1102 2.06268 100.176 0.859393C103.242 -0.34389 106.637 -0.420712 109.754 0.64262C112.872 1.70595 115.51 3.84038 117.199 6.66568C118.889 9.49098 119.519 12.8237 118.979 16.0701C118.438 19.3165 116.762 22.2657 114.248 24.3925C111.734 26.5193 108.546 27.6855 105.252 27.6833L105.2 27.8375Z" fill="black"/>
<path d="M145.565 131.768C142.711 131.788 139.909 131.017 137.468 129.541C135.027 128.065 133.043 125.941 131.737 123.407C130.432 120.872 129.855 118.026 130.071 115.183C130.287 112.341 131.287 109.614 132.961 107.306C133.154 107.046 133.439 106.869 133.757 106.811C134.076 106.754 134.405 106.821 134.676 106.998C134.815 107.095 134.934 107.219 135.025 107.362C135.115 107.505 135.177 107.665 135.206 107.833C135.234 108 135.23 108.171 135.192 108.336C135.154 108.502 135.084 108.658 134.985 108.796C133.31 111.141 132.47 113.979 132.597 116.857C132.724 119.735 133.813 122.488 135.688 124.676C136.79 125.965 138.135 127.023 139.647 127.792C141.158 128.561 142.807 129.025 144.498 129.157C146.189 129.289 147.89 129.087 149.503 128.562C151.116 128.037 152.609 127.2 153.898 126.098C156.305 124.046 157.873 121.182 158.306 118.051C158.738 114.92 158.005 111.739 156.245 109.112C154.485 106.485 151.821 104.595 148.759 103.801C145.696 103.007 142.448 103.364 139.632 104.805C139.481 104.881 139.316 104.927 139.148 104.94C138.979 104.953 138.809 104.933 138.649 104.88C138.488 104.828 138.339 104.744 138.21 104.634C138.082 104.524 137.976 104.39 137.9 104.239C137.823 104.089 137.777 103.924 137.764 103.756C137.751 103.587 137.772 103.418 137.824 103.257C137.877 103.097 137.96 102.948 138.07 102.82C138.181 102.691 138.315 102.586 138.466 102.509C141.85 100.606 145.828 100.048 149.606 100.946C153.384 101.844 156.685 104.132 158.849 107.353C161.013 110.575 161.882 114.493 161.282 118.326C160.682 122.16 158.658 125.626 155.613 128.034C152.818 130.438 149.253 131.763 145.565 131.768Z" fill="black"/>
<path d="M52.5244 38.9377C48.0652 38.9465 43.7708 37.255 40.5173 34.2084C37.2639 31.1619 35.2967 26.9898 35.0172 22.5437C35.0032 22.3744 35.0234 22.204 35.0766 22.0427C35.1298 21.8814 35.2149 21.7324 35.3268 21.6045C35.4388 21.4767 35.5753 21.3726 35.7283 21.2986C35.8813 21.2245 36.0477 21.1818 36.2175 21.1732C36.5559 21.1545 36.888 21.2699 37.1417 21.4944C37.3954 21.719 37.55 22.0345 37.5721 22.3724C37.7558 25.3049 38.8002 28.1184 40.5747 30.4615C42.3493 32.8047 44.7754 34.5737 47.5502 35.5477C50.325 36.5217 53.3255 36.6575 56.1771 35.9382C59.0287 35.2188 61.605 33.6763 63.5844 31.503C64.2289 30.8074 64.8033 30.05 65.2991 29.2418C65.4764 28.9487 65.7631 28.7381 66.0959 28.6562C66.4287 28.5742 66.7805 28.6277 67.0738 28.8049C67.3671 28.9821 67.578 29.2685 67.66 29.601C67.742 29.9335 67.6884 30.2849 67.5111 30.578C66.9273 31.524 66.2556 32.413 65.5048 33.2332C63.8598 35.0368 61.8549 36.4762 59.6193 37.4587C57.3836 38.4412 54.9668 38.945 52.5244 38.9377ZM68.7285 24.6508H68.5742C68.2371 24.6038 67.9318 24.427 67.7235 24.1581C67.5153 23.8892 67.4206 23.5495 67.4596 23.2118C67.5337 22.592 67.5737 21.9687 67.5796 21.3446C67.5755 19.2544 67.1358 17.1879 66.2885 15.2768C65.4413 13.3656 64.205 11.6516 62.6584 10.2439C60.8433 8.60891 58.656 7.44161 56.2866 6.84352C53.9171 6.24543 51.4372 6.23465 49.0627 6.8121C46.6881 7.38956 44.4906 8.53779 42.6614 10.1569C40.8321 11.7761 39.4265 13.8171 38.5667 16.1026C38.4276 16.3908 38.1859 16.6169 37.8888 16.7365C37.5917 16.8561 37.2606 16.8606 36.9604 16.7492C36.6601 16.6378 36.4123 16.4184 36.2654 16.1341C36.1185 15.8497 36.0831 15.5209 36.1661 15.2118C36.9349 13.1248 38.0993 11.2054 39.5955 9.55869C41.9756 6.93508 45.0954 5.09331 48.544 4.27599C51.9925 3.45868 55.608 3.70415 58.9141 4.98008C62.2202 6.25601 65.0619 8.50253 67.0649 11.4237C69.0678 14.3449 70.1381 17.8037 70.1346 21.3446C70.1321 22.0775 70.0863 22.8097 69.9974 23.5373C69.9526 23.8432 69.8004 24.1231 69.5679 24.3272C69.3354 24.5312 69.0379 24.6459 68.7285 24.6508Z" fill="black"/>
<path d="M65.0247 91.4602H64.7503C62.9576 91.0587 61.301 90.1963 59.9445 88.9584C58.5881 87.7204 57.5789 86.1499 57.017 84.4024C56.4212 82.5278 56.3671 80.5234 56.8608 78.6194C57.3546 76.7155 58.3762 74.9895 59.8081 73.6397C61.24 72.29 63.0241 71.3713 64.9553 70.9894C66.8865 70.6075 68.8864 70.7779 70.725 71.4809C72.5636 72.1839 74.1663 73.391 75.3489 74.9634C76.5314 76.5358 77.2457 78.4097 77.4097 80.3697C77.5738 82.3296 77.1808 84.296 76.276 86.0428C75.3712 87.7895 73.9913 89.2457 72.2951 90.2439C72.1496 90.3419 71.9856 90.4091 71.8131 90.4414C71.6407 90.4737 71.4634 90.4704 71.2923 90.4317C71.1211 90.393 70.9598 90.3198 70.818 90.2164C70.6763 90.1131 70.5572 89.9818 70.4682 89.8308C70.3791 89.6798 70.3219 89.5121 70.3001 89.3382C70.2783 89.1642 70.2924 88.9877 70.3415 88.8194C70.3905 88.6511 70.4735 88.4946 70.5854 88.3596C70.6972 88.2245 70.8356 88.1137 70.9919 88.0341C72.18 87.3289 73.1627 86.3254 73.8425 85.1233C74.5223 83.9213 74.8756 82.5625 74.8671 81.1818C74.8617 80.3737 74.7345 79.571 74.4899 78.8007C73.9888 77.2037 72.9897 75.8086 71.6384 74.8193C70.2872 73.83 68.6547 73.2982 66.9795 73.3017C66.1714 73.3011 65.3678 73.4224 64.596 73.6615C62.9993 74.1684 61.6061 75.171 60.6193 76.5236C59.6324 77.8762 59.1033 79.5081 59.1089 81.1818C59.1083 81.9891 59.2297 82.7919 59.469 83.563C59.8917 84.8799 60.6523 86.0631 61.6752 86.9949C62.6981 87.9266 63.9476 88.5744 65.299 88.8735C65.6044 88.9452 65.873 89.126 66.0543 89.3818C66.2356 89.6376 66.317 89.9507 66.2833 90.2623C66.2496 90.5739 66.103 90.8624 65.8712 91.0735C65.6394 91.2847 65.3383 91.404 65.0247 91.4088V91.4602Z" fill="black"/>
<path d="M86.5958 136C82.8576 136 79.2725 134.517 76.6291 131.876C73.9858 129.235 72.5009 125.653 72.5009 121.919C72.5009 118.184 73.9858 114.603 76.6291 111.962C79.2725 109.321 82.8576 107.837 86.5958 107.837C88.1961 107.84 89.7844 108.113 91.2941 108.643L92.2201 109.002C92.3755 109.069 92.5162 109.165 92.6343 109.286C92.7525 109.406 92.8456 109.549 92.9085 109.706C92.9714 109.863 93.0028 110.03 93.0009 110.199C92.999 110.368 92.9638 110.534 92.8974 110.69C92.831 110.845 92.7346 110.986 92.6138 111.104C92.4929 111.222 92.35 111.315 92.1931 111.377C92.0363 111.44 91.8686 111.472 91.6997 111.47C91.5307 111.468 91.3637 111.433 91.2084 111.366L90.4368 111.058C89.2013 110.63 87.9034 110.41 86.5958 110.407C83.8754 110.406 81.2423 111.367 79.1628 113.119C77.0832 114.871 75.6913 117.302 75.2334 119.981C74.7755 122.66 75.2812 125.415 76.6609 127.757C78.0406 130.099 80.2054 131.879 82.772 132.78C85.0866 133.593 87.6006 133.647 89.9479 132.933C92.2953 132.22 94.3535 130.777 95.8228 128.814C97.2922 126.851 98.096 124.471 98.1173 122.02C98.1385 119.568 97.3761 117.175 95.941 115.186C95.8419 115.049 95.7709 114.894 95.7319 114.729C95.6929 114.565 95.6868 114.394 95.7139 114.227C95.741 114.06 95.8007 113.9 95.8897 113.756C95.9786 113.612 96.0952 113.487 96.2325 113.388C96.3699 113.289 96.5254 113.218 96.6902 113.179C96.855 113.14 97.0259 113.134 97.1931 113.161C97.3603 113.188 97.5205 113.248 97.6646 113.336C97.8087 113.425 97.9339 113.542 98.033 113.679C99.5313 115.784 100.422 118.259 100.608 120.835C100.795 123.411 100.269 125.988 99.0888 128.286C97.9087 130.584 96.1195 132.514 93.9164 133.865C91.7133 135.217 89.181 135.937 86.5958 135.949V136Z" fill="black"/>
<path d="M147.142 89.3878C144.198 89.3878 141.375 88.2207 139.292 86.1426C137.208 84.0645 136.036 81.2454 136.031 78.3043C136.03 75.946 136.78 73.6486 138.174 71.7451C139.567 69.8416 141.532 68.4309 143.782 67.7176C143.944 67.6603 144.117 67.6363 144.289 67.647C144.461 67.6578 144.63 67.703 144.784 67.7801C144.938 67.8572 145.076 67.9645 145.188 68.0957C145.3 68.2269 145.384 68.3792 145.436 68.5437C145.488 68.7081 145.506 68.8813 145.489 69.0529C145.473 69.2245 145.422 69.391 145.339 69.5425C145.257 69.694 145.145 69.8274 145.01 69.9347C144.875 70.0421 144.719 70.1212 144.553 70.1673C143.125 70.623 141.841 71.445 140.83 72.5512C139.819 73.6573 139.116 75.009 138.792 76.4714C138.669 77.0747 138.606 77.6886 138.603 78.3043C138.611 80.2457 139.278 82.1269 140.497 83.6396C141.715 85.1522 143.411 86.2066 145.308 86.6298C145.912 86.7527 146.526 86.8158 147.142 86.8182C149.083 86.8067 150.962 86.138 152.472 84.9213C153.983 83.7047 155.036 82.0121 155.459 80.1202C155.596 79.5188 155.665 78.904 155.665 78.2872C155.659 76.6001 155.155 74.9522 154.215 73.5503C153.276 72.1484 151.943 71.055 150.383 70.4071C150.091 70.2616 149.865 70.0103 149.751 69.7042C149.637 69.3981 149.644 69.0601 149.771 68.7591C149.897 68.4581 150.134 68.2166 150.432 68.0836C150.731 67.9505 151.069 67.9361 151.378 68.0431C153.416 68.8791 155.157 70.304 156.379 72.1352C157.601 73.9665 158.248 76.1206 158.237 78.3215C158.237 81.2626 157.068 84.0835 154.988 86.1648C152.908 88.246 150.086 89.4176 147.142 89.4221V89.3878Z" fill="black"/>
<path d="M142.221 52.7965C139.037 52.7965 135.984 51.5331 133.733 49.2843C131.482 47.0354 130.218 43.9854 130.218 40.805C130.218 40.5309 130.218 40.2569 130.218 39.9828C130.243 39.642 130.402 39.3252 130.661 39.1019C130.92 38.8786 131.257 38.7672 131.598 38.7922C131.939 38.8172 132.256 38.9765 132.48 39.2351C132.703 39.4937 132.815 39.8305 132.79 40.1712C132.79 40.3768 132.79 40.5995 132.79 40.805C132.798 42.9104 133.518 44.9513 134.833 46.5964C136.148 48.2415 137.981 49.3943 140.034 49.8676C142.088 50.3408 144.241 50.1068 146.145 49.2035C148.048 48.3003 149.59 46.7807 150.52 44.8916C151.451 43.0025 151.714 40.8547 151.269 38.7969C150.824 36.7391 149.695 34.8922 148.067 33.5559C146.438 32.2196 144.405 31.4724 142.298 31.4356C140.191 31.3988 138.134 32.0746 136.459 33.3532C135.942 33.744 135.47 34.1923 135.053 34.6894C134.941 34.8176 134.804 34.9225 134.651 34.9979C134.498 35.0733 134.331 35.1179 134.161 35.129C133.99 35.1401 133.819 35.1176 133.658 35.0628C133.496 35.0079 133.347 34.9218 133.219 34.8093C133.09 34.6968 132.985 34.5602 132.91 34.4072C132.834 34.2542 132.79 34.0879 132.779 33.9177C132.767 33.7475 132.79 33.5767 132.845 33.4152C132.9 33.2537 132.986 33.1046 133.099 32.9764C133.638 32.3446 134.241 31.7705 134.899 31.2633C136.97 29.6639 139.517 28.8017 142.135 28.8136C144.616 28.8487 147.024 29.6509 149.03 31.1097C151.036 32.5686 152.539 34.6124 153.335 36.9601C154.13 39.3077 154.177 41.8439 153.471 44.2197C152.764 46.5954 151.338 48.694 149.388 50.2269C147.351 51.8548 144.829 52.7589 142.221 52.7965Z" fill="black"/>
<path d="M105.2 50.4667C104.859 50.4667 104.532 50.3314 104.291 50.0904C104.05 49.8495 103.914 49.5227 103.914 49.1819V26.5524C103.914 26.2116 104.05 25.8848 104.291 25.6439C104.532 25.4029 104.859 25.2676 105.2 25.2676C105.541 25.2676 105.868 25.4029 106.109 25.6439C106.351 25.8848 106.486 26.2116 106.486 26.5524V49.1819C106.482 49.5213 106.345 49.8455 106.105 50.0855C105.864 50.3255 105.54 50.4623 105.2 50.4667Z" fill="black"/>
<path d="M90.3682 57.0622C90.0514 57.066 89.7451 56.9497 89.5108 56.7367L63.7043 33.4905C63.5616 33.3834 63.4426 33.2478 63.3552 33.0922C63.2678 32.9367 63.2137 32.7647 63.1964 32.5871C63.1792 32.4096 63.1992 32.2304 63.255 32.061C63.3109 31.8915 63.4015 31.7356 63.521 31.6031C63.6405 31.4705 63.7863 31.3643 63.9492 31.2912C64.112 31.218 64.2884 31.1796 64.4669 31.1783C64.6455 31.1769 64.8223 31.2128 64.9862 31.2835C65.1502 31.3542 65.2976 31.4582 65.4191 31.589L91.2255 54.8181C91.4765 55.0475 91.6277 55.3658 91.647 55.7051C91.6662 56.0444 91.5518 56.3777 91.3284 56.6339C91.209 56.7706 91.0613 56.8798 90.8955 56.9537C90.7297 57.0277 90.5497 57.0647 90.3682 57.0622Z" fill="black"/>
<path d="M75.3983 79.949C75.0953 79.9444 74.8037 79.833 74.5748 79.6346C74.346 79.4361 74.1947 79.1633 74.1475 78.8643C74.1003 78.5652 74.1604 78.2591 74.3171 78C74.4738 77.7409 74.717 77.5453 75.0039 77.4479L85.7895 74.0218C86.1147 73.9173 86.468 73.9461 86.7719 74.1019C87.0758 74.2577 87.3053 74.5277 87.4099 74.8526C87.5145 75.1774 87.4856 75.5305 87.3296 75.8341C87.1737 76.1377 86.9034 76.3669 86.5783 76.4714L75.7927 79.8976L75.3983 79.949Z" fill="black"/>
<path d="M91.5685 110.784C91.4318 110.8 91.2936 110.8 91.1569 110.784C90.9869 110.731 90.8298 110.643 90.6956 110.526C90.5614 110.409 90.453 110.265 90.3772 110.104C90.3014 109.943 90.26 109.768 90.2555 109.59C90.251 109.412 90.2835 109.235 90.351 109.071L97.5871 87.6232C97.7054 87.3125 97.9397 87.0598 98.2406 86.9181C98.5415 86.7764 98.8857 86.7566 99.2009 86.8631C99.516 86.9695 99.7776 87.1938 99.9307 87.4889C100.084 87.7839 100.117 88.1268 100.022 88.4455L92.7345 109.91C92.6494 110.155 92.4929 110.369 92.2852 110.525C92.0774 110.681 91.8278 110.771 91.5685 110.784Z" fill="black"/>
<path d="M135.791 106.878C135.604 106.877 135.419 106.836 135.251 106.756C135.082 106.676 134.932 106.56 134.814 106.415L117.066 85.3447C116.849 85.082 116.744 84.7447 116.772 84.4053C116.801 84.0658 116.962 83.7511 117.221 83.5288C117.35 83.4192 117.5 83.3363 117.661 83.2847C117.823 83.2331 117.993 83.2139 118.162 83.2282C118.33 83.2426 118.495 83.2901 118.645 83.3682C118.796 83.4462 118.929 83.5532 119.038 83.683L136.786 104.771C137 105.033 137.102 105.369 137.07 105.705C137.038 106.042 136.874 106.353 136.614 106.57C136.385 106.767 136.093 106.876 135.791 106.878Z" fill="black"/>
<path d="M135.757 77.4818H135.465L124.371 74.9294C124.05 74.8425 123.774 74.6342 123.603 74.3485C123.432 74.0628 123.379 73.7219 123.454 73.3977C123.53 73.0735 123.729 72.7912 124.008 72.6104C124.288 72.4295 124.627 72.3643 124.954 72.4283L136.048 74.9808C136.215 75.0148 136.373 75.0824 136.513 75.1795C136.652 75.2765 136.771 75.401 136.861 75.5453C136.95 75.6896 137.01 75.8506 137.035 76.0186C137.061 76.1867 137.052 76.3581 137.009 76.5225C136.934 76.7971 136.771 77.0396 136.545 77.2129C136.319 77.3862 136.042 77.4806 135.757 77.4818Z" fill="black"/>
<path d="M121.37 58.7067C121.096 58.7117 120.827 58.6289 120.603 58.4704C120.379 58.3119 120.212 58.086 120.126 57.8257C120.039 57.5653 120.039 57.2843 120.124 57.0237C120.209 56.763 120.375 56.5363 120.599 56.3769L133.579 46.9893C133.855 46.8175 134.186 46.7565 134.505 46.8186C134.824 46.8807 135.108 47.0613 135.299 47.3241C135.49 47.5868 135.575 47.9121 135.536 48.2346C135.497 48.5571 135.337 48.8527 135.088 49.0621L122.125 58.4668C121.901 58.6173 121.64 58.7006 121.37 58.7067Z" fill="black"/>
</g>
<defs>
<clipPath id="clip0_287_5952">
<rect width="126.049" height="136" fill="white" transform="translate(35)"/>
</clipPath>
</defs>
</svg>
