<svg width="135" height="127" viewBox="0 0 135 127" fill="none" xmlns="http://www.w3.org/2000/svg">
<g clip-path="url(#clip0_285_5813)">
<g clip-path="url(#clip1_285_5813)">
<path d="M113.355 72.8291C110.252 76.7038 106.19 79.6963 101.575 81.5091" stroke="#444444" stroke-width="3" stroke-linecap="round" stroke-linejoin="round"/>
<path d="M61.4928 35.7775L60.0202 34.7737C55.726 31.878 50.7513 30.1579 45.5895 29.7842" stroke="#444444" stroke-width="3" stroke-linecap="round" stroke-linejoin="round"/>
<path d="M99.0128 82.6018C99.8417 82.5232 100.643 82.263 101.361 81.8396C102.078 81.4161 102.694 80.8398 103.165 80.1514V79.9447C103.578 79.3342 103.866 78.6482 104.014 77.9259C104.161 77.2036 104.166 76.4593 104.026 75.7354C103.887 75.0115 103.606 74.3222 103.201 73.7071C102.795 73.0919 102.273 72.5629 101.663 72.1503L89.2646 60.3408" stroke="#444444" stroke-width="3" stroke-linecap="round" stroke-linejoin="round"/>
<path d="M17.8765 70.9697C19.3941 74.088 21.4705 76.9001 24.0022 79.2659" stroke="#444444" stroke-width="3" stroke-linecap="round" stroke-linejoin="round"/>
<path d="M72.0361 65.8916L97.3636 83.0154C98.593 83.8492 99.4439 85.1363 99.7308 86.5963C100.018 88.0563 99.7172 89.5708 98.895 90.8097L98.7477 91.0164C98.3362 91.6274 97.8085 92.1511 97.1949 92.5575C96.5813 92.964 95.8937 93.2452 95.1716 93.385C94.4495 93.5249 93.707 93.5207 92.9865 93.3726C92.266 93.2245 91.5818 92.9354 90.9728 92.522L65.4686 75.3097" stroke="#444444" stroke-width="3" stroke-linecap="round" stroke-linejoin="round"/>
<path d="M65.4392 75.3096L88.9996 91.1934C90.2175 92.0217 91.063 93.2956 91.3548 94.7417C91.6466 96.1878 91.3614 97.6909 90.5605 98.9286L90.4132 99.1058C89.5815 100.338 88.2976 101.191 86.8412 101.479C85.3848 101.766 83.8741 101.465 82.6383 100.641L61.6106 86.4696" stroke="#444444" stroke-width="3" stroke-linecap="round" stroke-linejoin="round"/>
<path d="M64.7028 102.501L69.0615 105.454C69.6704 105.867 70.3547 106.156 71.0752 106.304C71.7957 106.452 72.5382 106.456 73.2603 106.317C73.9824 106.177 74.6699 105.895 75.2836 105.489C75.8972 105.083 76.4249 104.559 76.8364 103.948V103.741C77.2488 103.131 77.5371 102.445 77.6848 101.722C77.8325 101 77.8367 100.256 77.6972 99.5319C77.5577 98.808 77.2772 98.1188 76.8718 97.5036C76.4664 96.8885 75.944 96.3595 75.3345 95.9469L61.3749 86.5879" stroke="#444444" stroke-width="3" stroke-linecap="round" stroke-linejoin="round"/>
<path d="M94.3596 26.5358C89.3682 25.912 84.3007 26.5724 79.6343 28.4548L75.0106 30.3148L47.062 41.5339C48.1892 44.3225 50.3655 46.5547 53.1209 47.7479C55.8762 48.9412 58.9892 48.9998 61.7873 47.911L70.9464 44.3091L76.1591 52.7824C78.3322 56.265 81.7953 58.7405 85.7877 59.6649C89.7802 60.5894 93.9755 59.8874 97.4519 57.7129" stroke="#444444" stroke-width="3" stroke-linecap="round" stroke-linejoin="round"/>
<path d="M34.1037 85.1705L41.9081 74.4239C42.3491 73.8152 42.6661 73.1254 42.8412 72.3939C43.0162 71.6624 43.0457 70.9034 42.9281 70.1604C42.8105 69.4174 42.5481 68.705 42.1558 68.0637C41.7635 67.4224 41.249 66.8648 40.6417 66.4229C39.4191 65.527 37.8917 65.1544 36.3952 65.3869C34.8986 65.6194 33.5554 66.4381 32.6606 67.6629L24.8562 78.4096C23.9626 79.6352 23.5909 81.1665 23.8228 82.6668C24.0547 84.167 24.8713 85.5136 26.0932 86.4106C27.3329 87.2711 28.8547 87.6222 30.345 87.3915C31.8353 87.1608 33.1806 86.3659 34.1037 85.1705Z" stroke="#444444" stroke-width="3" stroke-linecap="round" stroke-linejoin="round"/>
<path d="M43.4395 91.9019L54.4246 76.8153C55.2798 75.5689 55.6253 74.041 55.3896 72.5467C55.154 71.0525 54.3553 69.7059 53.1582 68.7848C52.551 68.3427 51.8629 68.0248 51.1332 67.8494C50.4035 67.6739 49.6465 67.6443 48.9053 67.7622C48.1642 67.8801 47.4535 68.1432 46.8138 68.5365C46.1741 68.9298 45.6179 69.4455 45.1771 70.0543L34.192 85.1705C33.3424 86.411 32.9973 87.9299 33.2272 89.417C33.4571 90.904 34.2446 92.2469 35.429 93.1714C36.6722 94.0288 38.1964 94.3751 39.6869 94.1389C41.1774 93.9027 42.5207 93.1019 43.4395 91.9019Z" stroke="#444444" stroke-width="3" stroke-linecap="round" stroke-linejoin="round"/>
<path d="M52.5987 98.6632L60.4031 87.9461C61.2583 86.6997 61.6037 85.1718 61.3681 83.6775C61.1325 82.1833 60.3337 80.8367 59.1367 79.9156C58.5295 79.4735 57.8414 79.1556 57.1117 78.9802C56.382 78.8047 55.6249 78.7752 54.8838 78.8931C54.1427 79.0109 53.4319 79.274 52.7923 79.6673C52.1526 80.0606 51.5964 80.5763 51.1556 81.1851L43.4395 91.9023C42.5843 93.1486 42.2389 94.6766 42.4745 96.1708C42.7101 97.665 43.5089 99.0116 44.7059 99.9327C45.9258 100.798 47.4352 101.149 48.9106 100.912C50.386 100.675 51.71 99.8675 52.5987 98.6632Z" stroke="#444444" stroke-width="3" stroke-linecap="round" stroke-linejoin="round"/>
<path d="M61.8462 105.424L66.5288 98.9873C66.9698 98.3786 67.2869 97.6889 67.4619 96.9574C67.6369 96.2258 67.6665 95.4669 67.5489 94.7239C67.4313 93.9809 67.1688 93.2685 66.7765 92.6272C66.3842 91.9859 65.8697 91.4283 65.2625 90.9864C64.0398 90.0905 62.5124 89.7179 61.0159 89.9504C59.5193 90.1829 58.1761 91.0016 57.2813 92.2264L52.5987 98.6626C51.7435 99.909 51.398 101.437 51.6337 102.931C51.8693 104.425 52.668 105.772 53.8651 106.693C54.4723 107.135 55.1603 107.453 55.8901 107.628C56.6198 107.804 57.3768 107.833 58.118 107.716C58.8591 107.598 59.5698 107.335 60.2095 106.941C60.8492 106.548 61.4053 106.032 61.8462 105.424Z" stroke="#444444" stroke-width="3" stroke-linecap="round" stroke-linejoin="round"/>
<path d="M31.6593 19.2139L45.9723 29.2224L17.0518 72.2091L2.20874 60.5472" fill="#0068FF"/>
<path d="M31.6593 19.2139L45.9723 29.2224L17.0518 72.2091L2.20874 60.5472" stroke="#444444" stroke-width="3" stroke-linecap="round" stroke-linejoin="round"/>
<path d="M111.205 19.2139L94.4774 25.591L113.709 73.7443L131.791 66.452" fill="#ED1C24"/>
<path d="M111.205 19.2139L94.4774 25.591L113.709 73.7443L131.791 66.452" stroke="#444444" stroke-width="3" stroke-linecap="round" stroke-linejoin="round"/>
</g>
</g>
<defs>
<clipPath id="clip0_285_5813">
<rect width="135" height="127" fill="white"/>
</clipPath>
<clipPath id="clip1_285_5813">
<rect width="134" height="93" fill="white" transform="translate(0 17)"/>
</clipPath>
</defs>
</svg>
