<svg width="135" height="127" viewBox="0 0 135 127" fill="none" xmlns="http://www.w3.org/2000/svg">
<g clip-path="url(#clip0_285_5813)">
<path d="M38.2734 60.3809H16.3534V118.286H38.2734V60.3809Z" fill="#003D96" stroke="#444444" stroke-width="3" stroke-linecap="round" stroke-linejoin="round"/>
<path d="M78.46 67.6191H56.54V118.286H78.46V67.6191Z" fill="#0068FF" stroke="#444444" stroke-width="3" stroke-linecap="round" stroke-linejoin="round"/>
<path d="M118.647 38.667H96.7267V118.286H118.647V38.667Z" fill="#ED1C24" stroke="#444444" stroke-width="3" stroke-linecap="round" stroke-linejoin="round"/>
<path d="M85.7666 9.71387H100.38V24.1901" stroke="#444444" stroke-width="3" stroke-linecap="round" stroke-linejoin="round"/>
<path d="M16.3534 38.6662H45.5801L58.3667 51.3329L100.38 9.71387" stroke="#444444" stroke-width="3" stroke-linecap="round" stroke-linejoin="round"/>
<path d="M1.73999 118.286H133.26" stroke="#444444" stroke-width="3" stroke-linecap="round" stroke-linejoin="round"/>
</g>
<defs>
<clipPath id="clip0_285_5813">
<rect width="135" height="127" fill="white"/>
</clipPath>
</defs>
</svg>
