<svg width="37" height="37" viewBox="0 0 37 37" fill="none" xmlns="http://www.w3.org/2000/svg">
<g clip-path="url(#clip0_68_3053)">
<path d="M31.8444 10.1502C30.8238 10.5809 29.7413 10.8636 28.6329 10.9889C29.7875 10.3297 30.674 9.28574 31.0914 8.04191C29.9938 8.66239 28.793 9.09956 27.5409 9.33453C26.5209 8.29931 25.0678 7.65234 23.4595 7.65234C20.3716 7.65234 17.868 10.0374 17.868 12.979C17.868 13.3966 17.9175 13.8031 18.0128 14.193C13.3658 13.9708 9.24585 11.8502 6.48803 8.62741C6.00683 9.41414 5.7311 10.3293 5.7311 11.3054C5.7311 13.1535 6.7183 14.7838 8.21852 15.7391C7.3306 15.7126 6.46221 15.4842 5.68586 15.0728C5.68554 15.0951 5.68554 15.1174 5.68554 15.1398C5.68554 17.7207 7.61288 19.8737 10.1707 20.3631C9.3473 20.5764 8.48364 20.6076 7.64567 20.4543C8.35713 22.5706 10.4221 24.1106 12.8688 24.1537C10.9552 25.5823 8.54418 26.434 5.92465 26.434C5.47326 26.434 5.02826 26.4087 4.59082 26.3595C7.06525 27.8709 10.0043 28.7528 13.1618 28.7528C23.4465 28.7528 29.0705 20.6359 29.0705 13.5968C29.0705 13.3657 29.0651 13.136 29.0543 12.9076C30.1489 12.1537 31.0937 11.22 31.8444 10.1502Z" fill="white"/>
</g>
<defs>
<clipPath id="clip0_68_3053">
<rect width="27.2535" height="21.1972" fill="white" transform="translate(4.59082 7.56982)"/>
</clipPath>
</defs>
</svg>
