<svg width="80" height="80" viewBox="0 0 80 80" fill="none" xmlns="http://www.w3.org/2000/svg">
<g clip-path="url(#clip0_807_7953)">
<mask id="mask0_807_7953" style="mask-type:luminance" maskUnits="userSpaceOnUse" x="0" y="0" width="80" height="80">
<path d="M0 7.62939e-06H80V80H0V7.62939e-06Z" fill="white"/>
</mask>
<g mask="url(#mask0_807_7953)">
<path d="M43.4217 29.2969L44.643 28.0781L47.8391 24.8892C49.4884 23.2436 49.4884 20.5483 47.8391 18.9027C46.1898 17.2569 43.4886 17.2569 41.8392 18.9027L37.4219 23.3103" stroke="#0093D8" stroke-width="2.43164" stroke-miterlimit="10" stroke-linecap="round" stroke-linejoin="round"/>
<path d="M63.9743 37.983C62.53 36.5419 60.163 36.5419 58.7188 37.983L53.1066 43.587C51.6624 45.0281 51.6624 47.3855 53.1066 48.8264C54.5508 50.2675 56.9135 50.2675 58.3579 48.8264L63.9743 43.2223C65.4186 41.7814 65.4186 39.4241 63.9743 37.983Z" stroke="#0093D8" stroke-width="2.43164" stroke-miterlimit="10" stroke-linecap="round" stroke-linejoin="round"/>
<path d="M53.2783 31.4362C52.7166 31.9967 53.8711 30.8447 53.8889 30.827C55.4891 29.1768 55.4714 26.5215 53.8398 24.8892C52.1906 23.2436 49.4892 23.2436 47.8398 24.8892L45.6289 27.0953" stroke="#0093D8" stroke-width="2.43164" stroke-miterlimit="10" stroke-linecap="round" stroke-linejoin="round"/>
<path d="M52.6239 66.5014C52.5392 64.4866 52.9225 62.4495 53.783 60.5861L34.3924 41.2341M56.6938 49.7827L60.6521 53.732C65.3861 51.5616 71.2031 52.4156 75.0902 56.2939C78.1928 59.3895 79.3652 63.7127 78.603 67.7334C77.8049 71.9542 75.5763 68.7608 75.1214 68.3072L69.6786 62.8766C67.7753 60.9773 64.713 60.8973 62.7116 62.6408C60.9641 64.6378 61.0444 67.6934 62.9477 69.5927L68.3905 75.0233C68.8452 75.4769 72.0458 77.7008 67.8155 78.4969C63.7858 79.2575 59.453 78.0877 56.3507 74.992C55.3832 74.0225 54.6032 72.9372 54.0103 71.7809M31.076 24.2261L26.2171 19.3736C28.3924 14.6502 27.5364 8.84594 23.6494 4.96766C20.5471 1.87203 16.2144 0.702189 12.1846 1.46281C7.95425 2.25891 11.1549 4.48282 11.6096 4.93641L17.0524 10.367C18.9557 12.2663 19.036 15.3219 17.2886 17.3187C15.2871 19.0623 12.2247 18.9822 10.3214 17.0831L4.87863 11.6525C4.42394 11.1988 2.19519 8.00531 1.39707 12.2262C0.635038 16.247 1.80722 20.5702 4.90988 23.6658C8.79691 27.5441 14.6139 28.3981 19.348 26.2277L24.4921 31.3602" stroke="#EB1C24" stroke-width="2" stroke-miterlimit="10" stroke-linecap="round" stroke-linejoin="round"/>
<path d="M22.5353 61.5468L29.2574 68.2538C30.2961 69.2902 30.2961 70.9847 29.2574 72.0211L23.2799 77.9855C22.2411 79.0218 20.5428 79.0218 19.5043 77.9855L2.9977 61.5157C1.9591 60.4793 1.9591 58.7847 2.9977 57.7483L8.97535 51.7841C10.0139 50.7477 11.7122 50.7477 12.751 51.7841L18.6618 57.6818" stroke="#0093D8" stroke-width="2.43164" stroke-miterlimit="10" stroke-linecap="round" stroke-linejoin="round"/>
<path d="M29.2578 68.2539L37.2191 60.3103C40.2012 57.3348 40.7806 57.9753 44.3022 58.478C45.8802 58.7047 48.1312 57.8641 49.9411 56.7522" stroke="#0093D8" stroke-width="2.43164" stroke-miterlimit="10" stroke-linecap="round" stroke-linejoin="round"/>
<path d="M58.7181 31.9963C57.0688 30.3507 54.3675 30.3507 52.7183 31.9963L48.3184 36.3862C46.6647 38.0363 46.6647 40.7271 48.3184 42.3727C49.9678 44.0229 52.6691 44.0229 54.3184 42.3727L58.7181 37.9829C60.3719 36.3373 60.3719 33.642 58.7181 31.9963Z" stroke="#0093D8" stroke-width="2.43164" stroke-miterlimit="10" stroke-linecap="round" stroke-linejoin="round"/>
<path d="M48.8609 35.8481C48.9814 34.6784 47.0467 32.9126 45.0586 30.9289L36.3173 22.207C35.4347 21.3264 33.9814 21.3264 33.0945 22.2115L25.8775 29.4123C24.2372 31.049 23.5016 33.4553 23.6309 35.6168C23.8316 38.9259 22.2891 42.2706 17.7156 46.8295L12.75 51.7842M34.3694 32.2365C34.445 32.3165 37.4005 35.2611 37.4762 35.3367C39.8164 37.5961 44.537 39.544 47.5816 37.3737" stroke="#0093D8" stroke-width="2.43164" stroke-miterlimit="10" stroke-linecap="round" stroke-linejoin="round"/>
<path d="M34.367 32.2359C36.9745 34.8378 36.2525 39.7748 32.7578 43.2617" stroke="#0093D8" stroke-width="2.43164" stroke-miterlimit="10" stroke-linecap="round" stroke-linejoin="round"/>
</g>
</g>
<defs>
<clipPath id="clip0_807_7953">
<rect width="80" height="80" fill="white"/>
</clipPath>
</defs>
</svg>
