<svg width="80" height="80" viewBox="0 0 80 80" fill="none" xmlns="http://www.w3.org/2000/svg">
<g clip-path="url(#clip0_807_8033)">
<path d="M49.4786 42.1621C47.9814 41.893 46.8558 40.8389 46.7141 39.5509L46.4336 37.0002" stroke="#0093D8" stroke-width="2" stroke-miterlimit="10" stroke-linecap="round" stroke-linejoin="round"/>
<path d="M32.0442 37.0076L31.7645 39.5509C31.623 40.8389 30.4973 41.8931 29 42.1621" stroke="#0093D8" stroke-width="2" stroke-miterlimit="10" stroke-linecap="round" stroke-linejoin="round"/>
<mask id="mask0_807_8033" style="mask-type:luminance" maskUnits="userSpaceOnUse" x="0" y="0" width="80" height="80">
<path d="M0 7.62939e-06H80V80H0V7.62939e-06Z" fill="white"/>
</mask>
<g mask="url(#mask0_807_8033)">
<path d="M44.2109 55.7821C44.2109 58.0969 42.3344 59.9736 40.0195 59.9736C37.7045 59.9736 35.8281 58.0969 35.8281 55.7821C35.8281 53.4672 37.7045 51.5907 40.0195 51.5907C42.3344 51.5907 44.2109 53.4672 44.2109 55.7821Z" stroke="#EB1C24" stroke-width="2" stroke-miterlimit="10" stroke-linecap="round" stroke-linejoin="round"/>
<path d="M19.418 58.8409V68.9209" stroke="#EB1C24" stroke-width="2" stroke-miterlimit="10" stroke-linecap="round" stroke-linejoin="round"/>
<path d="M60.6173 68.9199V46.1054C60.6173 44.0445 58.9469 42.3841 56.8959 42.3841H23.1353C21.0802 42.3841 19.4141 44.0502 19.4141 46.1054V53.2966" stroke="#EB1C24" stroke-width="2" stroke-miterlimit="10" stroke-linecap="round" stroke-linejoin="round"/>
<path d="M69.342 70.3711L72.6045 67.2306C74.0975 65.7937 74.6586 63.6412 74.0575 61.6583L70.023 48.3522C68.9119 44.687 65.8167 41.97 62.0384 41.3433L59.9688 40.9997" stroke="#0093D8" stroke-width="2" stroke-miterlimit="10" stroke-linecap="round" stroke-linejoin="round"/>
<path d="M20.0689 40.9997L17.9986 41.3431C14.2202 41.97 11.1252 44.687 10.0138 48.3522L5.97957 61.6583C5.37832 63.6411 5.93957 65.7938 7.43254 67.2306L10.695 70.3711" stroke="#0093D8" stroke-width="2" stroke-miterlimit="10" stroke-linecap="round" stroke-linejoin="round"/>
<path d="M64.2384 73.3711C65.0303 72.5406 65.5167 71.4159 65.5167 70.1778C65.5167 69.4834 64.9537 68.9206 64.2594 68.9206H15.7845C15.0902 68.9206 14.5273 69.4834 14.5273 70.1778C14.5273 71.4159 15.0134 72.5406 15.8053 73.3711" stroke="#EB1C24" stroke-width="2" stroke-miterlimit="10" stroke-linecap="round" stroke-linejoin="round"/>
<path d="M76.0347 73.3714H3.96672C2.45969 73.3714 1.23828 74.5928 1.23828 76.0997C1.23828 77.6066 2.45969 78.8281 3.96672 78.8281H76.0347C77.5416 78.8281 78.763 77.6066 78.763 76.0997C78.763 74.5928 77.5416 73.3714 76.0347 73.3714Z" stroke="#0093D8" stroke-width="2" stroke-miterlimit="10" stroke-linecap="round" stroke-linejoin="round"/>
<path d="M55.0025 9.06836C55.0025 9.06836 55.0014 9.06836 55.0014 8.25742C55.0014 4.34399 51.8272 1.17196 47.9136 1.17211C44.3678 1.17227 37.1234 1.17242 34.7417 1.17242C33.6309 1.17258 32.6114 1.78789 32.0939 2.77086L32.0941 2.80274C32.0941 3.88664 31.2252 4.59289 30.1542 4.42586C27.4047 3.99727 25.0352 6.1118 25.0352 8.77977V18.5879C25.1598 18.5674 25.2878 18.5568 25.4183 18.5568H27.0777C28.3292 18.5568 29.4094 17.6027 29.4822 16.3534C29.4898 16.2205 29.4866 13.8346 29.4866 13.8502C29.4866 12.456 30.6172 11.3254 32.0114 11.3254H32.5548C34.9664 11.3254 36.1428 12.6329 40.1445 12.6329C41.3291 12.6329 42.5078 12.4965 43.658 12.2274V12.2255C45.3684 11.8274 46.0117 11.3254 47.7339 11.3254H48.0283C49.4227 11.3254 50.5531 12.456 50.5531 13.8502C50.5531 16.3937 50.5506 16.2498 50.5591 16.3755C50.6416 17.6157 51.7186 18.5568 52.9616 18.5568H54.6216C54.7519 18.5568 54.8798 18.5674 55.0047 18.5877C55.0047 18.5877 55.0025 18.5877 55.0025 14.6562" stroke="#0093D8" stroke-width="2" stroke-miterlimit="10" stroke-linecap="round" stroke-linejoin="round"/>
<path d="M27.0761 18.5566H27.0078L27.01 25.8761C27.1314 31.5311 30.868 35.8041 35.7912 37.827C35.7916 37.8269 35.792 37.8266 35.792 37.8266C37.0528 38.3448 38.4592 38.6858 40.0183 38.7031C45.3359 38.6439 52.8545 33.8827 53.0264 25.8761L53.0289 18.5566H52.96" stroke="#0093D8" stroke-width="2" stroke-miterlimit="10" stroke-linecap="round" stroke-linejoin="round"/>
<path d="M25.4173 18.5563C24.1169 18.5563 23.0625 19.6107 23.0625 20.9111V23.5208C23.0625 24.8216 24.1169 25.876 25.4173 25.876H27.0106" stroke="#0093D8" stroke-width="2" stroke-miterlimit="10" stroke-linecap="round" stroke-linejoin="round"/>
<path d="M53.0312 25.8758V25.876H54.6247C55.9252 25.876 56.9797 24.8216 56.9797 23.521V20.9113C56.9797 19.6107 55.9252 18.5563 54.6247 18.5563" stroke="#0093D8" stroke-width="2" stroke-miterlimit="10" stroke-linecap="round" stroke-linejoin="round"/>
</g>
</g>
<defs>
<clipPath id="clip0_807_8033">
<rect width="80" height="80" fill="white"/>
</clipPath>
</defs>
</svg>
