<svg width="80" height="80" viewBox="0 0 80 80" fill="none" xmlns="http://www.w3.org/2000/svg">
<mask id="mask0_807_8152" style="mask-type:luminance" maskUnits="userSpaceOnUse" x="0" y="0" width="80" height="80">
<path d="M0 0.987656H79.0123V80H0V0.987656Z" fill="white"/>
</mask>
<g mask="url(#mask0_807_8152)">
<path d="M1.16016 77.2891H77.8577" stroke="#0093D8" stroke-width="2" stroke-miterlimit="10" stroke-linecap="round" stroke-linejoin="round"/>
<path d="M37.6888 24.4062V20.3924C37.6888 19.88 37.2752 19.4664 36.7628 19.4664H19.965C19.4526 19.4664 19.0391 19.88 19.0391 20.3924V24.4062" stroke="#0093D8" stroke-width="2" stroke-miterlimit="10" stroke-linecap="round" stroke-linejoin="round"/>
<path d="M14.8398 77.291V32.7895" stroke="#0093D8" stroke-width="2" stroke-miterlimit="10" stroke-linecap="round" stroke-linejoin="round"/>
<path d="M14.8398 27.3882V25.3327C14.8398 24.8202 15.255 24.4068 15.7658 24.4068H40.9679C41.4787 24.4068 41.8939 24.8202 41.8939 25.3327V77.291" stroke="#0093D8" stroke-width="2" stroke-miterlimit="10" stroke-linecap="round" stroke-linejoin="round"/>
<path d="M64.1758 77.291V73.9176" stroke="#EB1C24" stroke-width="2" stroke-miterlimit="10" stroke-linecap="round" stroke-linejoin="round"/>
<path d="M41.8945 37.0002L63.3436 44.3906C63.8421 44.5619 64.1769 45.0311 64.1769 45.5571V68.5156" stroke="#EB1C24" stroke-width="2" stroke-miterlimit="10" stroke-linecap="round" stroke-linejoin="round"/>
<path d="M28.3672 19.4668V3.69812" stroke="#0093D8" stroke-width="2" stroke-miterlimit="10" stroke-linecap="round" stroke-linejoin="round"/>
<path d="M20.8594 31.9434H35.8709" stroke="#0093D8" stroke-width="2" stroke-miterlimit="10" stroke-linecap="round" stroke-linejoin="round"/>
<path d="M20.8594 37.3438H35.8709" stroke="#0093D8" stroke-width="2" stroke-miterlimit="10" stroke-linecap="round" stroke-linejoin="round"/>
<path d="M20.8594 42.7461H35.8709" stroke="#0093D8" stroke-width="2" stroke-miterlimit="10" stroke-linecap="round" stroke-linejoin="round"/>
<path d="M20.8594 48.1465H35.8709" stroke="#0093D8" stroke-width="2" stroke-miterlimit="10" stroke-linecap="round" stroke-linejoin="round"/>
<path d="M20.8594 53.5488H35.8709" stroke="#0093D8" stroke-width="2" stroke-miterlimit="10" stroke-linecap="round" stroke-linejoin="round"/>
<path d="M20.8594 58.9492H35.8709" stroke="#0093D8" stroke-width="2" stroke-miterlimit="10" stroke-linecap="round" stroke-linejoin="round"/>
<path d="M20.8594 64.3516H35.8709" stroke="#0093D8" stroke-width="2" stroke-miterlimit="10" stroke-linecap="round" stroke-linejoin="round"/>
<path d="M20.8594 69.752H35.8709" stroke="#0093D8" stroke-width="2" stroke-miterlimit="10" stroke-linecap="round" stroke-linejoin="round"/>
<path d="M47.6328 49.4874V70.9688" stroke="#EB1C24" stroke-width="2" stroke-miterlimit="10" stroke-linecap="round" stroke-linejoin="round"/>
<path d="M53.0391 49.4874V70.9688" stroke="#EB1C24" stroke-width="2" stroke-miterlimit="10" stroke-linecap="round" stroke-linejoin="round"/>
<path d="M58.4375 49.4874V70.9688" stroke="#EB1C24" stroke-width="2" stroke-miterlimit="10" stroke-linecap="round" stroke-linejoin="round"/>
</g>
</svg>
