<svg width="115" height="98" viewBox="0 0 115 98" fill="none" xmlns="http://www.w3.org/2000/svg">
<g clip-path="url(#clip0_801_4988)">
<path d="M55.4962 89.3901C74.353 89.3016 89.5674 74.0168 89.4785 55.2504C89.3896 36.4841 74.0311 21.3427 55.1743 21.4312C36.3175 21.5197 21.1031 36.8045 21.192 55.5708C21.2809 74.3371 36.6394 89.4785 55.4962 89.3901Z" stroke="#0093D8" stroke-width="2" stroke-miterlimit="10" stroke-linejoin="round"/>
<path d="M55.6255 73.8199C65.8407 73.6604 73.9917 65.2897 73.8314 55.1235C73.6711 44.9573 65.26 36.8453 55.0448 37.0049C44.8296 37.1645 36.6786 45.5351 36.8389 55.7013C36.9992 65.8675 45.4103 73.9795 55.6255 73.8199Z" stroke="#0093D8" stroke-width="2" stroke-miterlimit="10" stroke-linejoin="round"/>
<path d="M65.9968 79.1748C79.1758 73.315 85.0863 57.9323 79.1984 44.8166C73.3104 31.7008 57.8535 25.8186 44.6745 31.6783C31.4955 37.538 25.5849 52.9207 31.4729 66.0365C37.3609 79.1523 52.8177 85.0345 65.9968 79.1748Z" stroke="#EB1C24" stroke-width="2" stroke-miterlimit="10" stroke-linejoin="round"/>
<path d="M55.9683 66.3089C62.0161 66.2137 66.8413 61.2574 66.7456 55.2386C66.65 49.2198 61.6697 44.4178 55.6219 44.513C49.5741 44.6081 44.7489 49.5645 44.8446 55.5833C44.9402 61.6021 49.9205 66.4041 55.9683 66.3089Z" stroke="#EB1C24" stroke-width="2" stroke-miterlimit="10" stroke-linejoin="round"/>
<path d="M55.7942 55.4126L102.085 7.87805" stroke="#0093D8" stroke-width="2" stroke-miterlimit="10" stroke-linejoin="round"/>
<path d="M92.054 25.9196L84.8757 25.5533L84.3235 18.4094L101.349 0.915894L101.901 8.05982L109.08 8.42617L92.054 25.9196Z" stroke="#0093D8" stroke-width="2" stroke-miterlimit="10" stroke-linejoin="round"/>
<path d="M48.6157 55.4112H13" stroke="#0093D8" stroke-width="2" stroke-miterlimit="10" stroke-linejoin="round"/>
<path d="M55.7942 48.2673V12.8224" stroke="#0093D8" stroke-width="2" stroke-miterlimit="10" stroke-linejoin="round"/>
<path d="M62.9731 55.4112H98.5889" stroke="#0093D8" stroke-width="2" stroke-miterlimit="10" stroke-linejoin="round"/>
<path d="M55.7942 62.5558V98.0007" stroke="#0093D8" stroke-width="2" stroke-miterlimit="10" stroke-linejoin="round"/>
</g>
<defs>
<clipPath id="clip0_801_4988">
<rect width="97" height="98" fill="white" transform="translate(13)"/>
</clipPath>
</defs>
</svg>
