<svg width="109" height="120" viewBox="0 0 109 120" fill="none" xmlns="http://www.w3.org/2000/svg">
<path d="M11 3L2.52705 16.1597L28.759 15.6453L11 3Z" fill="#DFD4BB"/>
<path d="M99.0577 3.20064L108 16.63L79.6093 16.63L99.0577 3.20064Z" fill="#DFD4BB"/>
<path d="M11 100.425V3.00195H99V100.425C99 110.681 92.2143 119.002 83.8509 119.002H26.1372C17.7738 119.002 11 110.695 11 100.425Z" fill="#F3EDE0"/>
</svg>
