<svg width="24" height="25" viewBox="0 0 24 25" fill="none" xmlns="http://www.w3.org/2000/svg">
<circle cx="10" cy="10.4805" r="10" fill="#9F6C38"/>
<circle cx="14" cy="14.4805" r="9.5" stroke="#3F3B3B"/>
</svg>
