<svg width="80" height="80" viewBox="0 0 80 80" fill="none" xmlns="http://www.w3.org/2000/svg">
<path d="M37.8008 27.648V17.4966L57.7288 2.4043L77.6569 17.4966V51.2303H67.3924" stroke="#9F6C38" stroke-width="2" stroke-miterlimit="10" stroke-linecap="round" stroke-linejoin="round"/>
<path d="M22.2718 67.9041H2.34375V34.1703L22.2718 19.0781L35.6941 29.2433" stroke="#9F6C38" stroke-width="2" stroke-miterlimit="10" stroke-linecap="round" stroke-linejoin="round"/>
<path d="M67.3912 77.5964H22.2715V39.4076L44.8312 22.3223L67.3912 39.4076V77.5964Z" stroke="#9F6C38" stroke-width="2" stroke-miterlimit="10" stroke-linecap="round" stroke-linejoin="round"/>
<path d="M38.7695 77.4872V48.6016H50.6901V77.4872" stroke="#9F6C38" stroke-width="2" stroke-miterlimit="10" stroke-linecap="round" stroke-linejoin="round"/>
</svg>
