<svg width="513" height="217" viewBox="0 0 513 217" fill="none" xmlns="http://www.w3.org/2000/svg">
<path d="M42.1791 11L26 26.6363L52 32L42.1791 11Z" fill="#DFD4BB"/>
<path d="M129.416 11L143 25.3538L111 29L129.416 11Z" fill="#DFD4BB"/>
<g filter="url(#filter0_d_78_5654)">
<path d="M7 168.632V48.3868C7 34.9175 20.1299 24 36.3289 24H422.104C438.303 24 451.433 34.9175 451.433 48.3868V77.2634L489 108.5L451.433 139.737V168.613C451.433 182.083 438.303 193 422.104 193H36.3289C20.1299 193.019 7 182.102 7 168.632Z" fill="white"/>
<path d="M450.933 77.2634V77.4979L451.113 77.6479L488.218 108.5L451.113 139.352L450.933 139.502V139.737V168.613C450.933 181.724 438.117 192.5 422.104 192.5H36.3289H36.3283C20.3157 192.519 7.5 181.743 7.5 168.632V48.3868C7.5 35.276 20.3157 24.5 36.3289 24.5H422.104C438.117 24.5 450.933 35.276 450.933 48.3868V77.2634Z" stroke="#D9D9D9"/>
</g>
<path d="M42 108.423V11H130V108.423C130 118.679 123.214 127 114.851 127H57.1372C48.7738 127 42 118.693 42 108.423Z" fill="#F3EDE0"/>
<g clip-path="url(#clip0_78_5654)">
<path d="M111.281 67.748H98.0989C97.6836 67.748 97.3469 68.0847 97.3469 68.5C97.3469 75.0324 92.0324 80.3469 85.5 80.3469C78.9676 80.3469 73.6531 75.0323 73.6531 68.5C73.6531 68.0847 73.3164 67.748 72.9011 67.748H59.7188C59.3035 67.748 58.9668 68.0847 58.9668 68.5V71.078C58.9668 72.4265 60.0638 73.5235 61.4123 73.5235C63.451 73.5235 65.2031 74.6959 65.9848 76.5832C66.7666 78.4706 66.3567 80.5387 64.9151 81.9804C64.4533 82.4422 64.1989 83.0564 64.1989 83.7096C64.1989 84.3629 64.4533 84.977 64.9151 85.4389L68.5611 89.0849C69.5147 90.0383 71.066 90.0383 72.0195 89.0849C73.4634 87.6413 75.5321 87.2299 77.4183 88.0111C79.3047 88.7924 80.4764 90.5462 80.4764 92.5877C80.4764 93.9362 81.5734 95.0332 82.9219 95.0332H88.0779C89.4263 95.0332 90.5234 93.9362 90.5234 92.5877C90.5234 90.549 91.6959 88.7969 93.5832 88.0151C95.4707 87.2336 97.5387 87.6433 98.9803 89.0849C99.9338 90.0383 101.485 90.0383 102.439 89.0849L106.085 85.4389C106.547 84.977 106.801 84.3629 106.801 83.7096C106.801 83.0564 106.547 82.4422 106.085 81.9804C104.643 80.5387 104.233 78.4706 105.015 76.5832C105.797 74.6959 107.549 73.5235 109.588 73.5235C110.936 73.5235 112.033 72.4265 112.033 71.078V68.5C112.033 68.0847 111.697 67.748 111.281 67.748ZM110.529 71.078C110.529 71.5972 110.107 72.0196 109.588 72.0196C106.929 72.0196 104.645 73.5478 103.626 76.0077C102.607 78.4678 103.142 81.1639 105.021 83.0437C105.199 83.2215 105.297 83.4581 105.297 83.7096C105.297 83.9612 105.199 84.1977 105.021 84.3753L101.375 88.0213C101.008 88.3884 100.411 88.3885 100.044 88.0213C98.1639 86.1415 95.4678 85.6064 93.0077 86.6257C90.5478 87.6446 89.0196 89.9292 89.0196 92.5877C89.0196 93.1069 88.5972 93.5293 88.078 93.5293H82.922C82.4028 93.5293 81.9804 93.1069 81.9804 92.5877C81.9804 89.9263 80.4529 87.6401 77.994 86.6216C77.1699 86.2803 76.3195 86.1136 75.4815 86.1136C73.8193 86.1136 72.2075 86.7702 70.9563 88.0215C70.5891 88.3885 69.9917 88.3885 69.6247 88.0216L65.9787 84.3755C65.8009 84.1978 65.703 83.9613 65.703 83.7098C65.703 83.4582 65.801 83.2216 65.9787 83.044C67.8585 81.164 68.3934 78.4679 67.3744 76.0078C66.3554 73.5479 64.0709 72.0197 61.4124 72.0197C60.8932 72.0197 60.4708 71.5973 60.4708 71.0781V69.252H72.1702C72.5618 76.2649 78.391 81.8508 85.5001 81.8508C92.6092 81.8508 98.4384 76.2649 98.83 69.252H110.529V71.078ZM76.4469 67.748C76.0316 67.748 75.695 68.0847 75.695 68.5C75.695 73.9064 80.0935 78.3049 85.5 78.3049C90.9065 78.3049 95.305 73.9064 95.305 68.5C95.305 68.0847 94.9684 67.748 94.5531 67.748H76.4469ZM85.5 76.801C81.1762 76.801 77.6137 73.4781 77.2326 69.252H93.7674C93.3863 73.4783 89.8238 76.801 85.5 76.801ZM85.5002 51.3975C88.1005 51.3975 90.2158 49.2821 90.2158 46.6819C90.2159 44.0819 88.1005 41.9668 85.5002 41.9668C82.9 41.9668 80.7846 44.0819 80.7846 46.6819C80.7846 49.2821 82.9001 51.3975 85.5002 51.3975ZM85.5002 43.4707C87.2712 43.4707 88.7119 44.9112 88.7119 46.6819C88.7119 48.4528 87.2711 49.8936 85.5002 49.8936C83.7294 49.8936 82.2885 48.4528 82.2885 46.6819C82.2885 44.9112 83.7294 43.4707 85.5002 43.4707ZM62.139 64.8752C63.7754 65.4777 65.9617 65.8095 68.2948 65.8095C71.8362 65.8095 75.4015 65.0351 76.8942 63.3484C77.3717 63.8954 78.1385 64.4313 79.3442 64.8752C80.9807 65.4777 83.1669 65.8095 85.5 65.8095C89.0414 65.8095 92.6068 65.0351 94.0994 63.3484C94.5769 63.8954 95.3437 64.4313 96.5494 64.8752C98.1859 65.4777 100.372 65.8095 102.705 65.8095C107.348 65.8095 112.033 64.4786 112.033 61.5054C112.033 56.3622 107.849 52.1778 102.705 52.1778C98.8394 52.1778 95.5155 54.5417 94.1026 57.8998C92.6897 54.5417 89.3659 52.1778 85.5002 52.1778C81.6342 52.1778 78.3103 54.5417 76.8973 57.8998C75.4845 54.5417 72.1607 52.1778 68.295 52.1778C63.1514 52.1778 58.9668 56.3622 58.9668 61.5054C58.9668 62.5098 59.5171 63.91 62.139 64.8752ZM102.705 53.6817C107.02 53.6817 110.529 57.1914 110.529 61.5054C110.529 63.0756 107.093 64.3056 102.705 64.3056C98.3179 64.3056 94.8812 63.0756 94.8812 61.5054C94.8812 57.1914 98.3912 53.6817 102.705 53.6817ZM85.5002 53.6817C89.8143 53.6817 93.324 57.1914 93.324 61.5054C93.324 63.0756 89.8872 64.3056 85.4999 64.3056C81.1126 64.3056 77.6759 63.0756 77.6759 61.5054C77.6759 57.1914 81.1859 53.6817 85.5002 53.6817ZM68.2951 53.6817C72.6092 53.6817 76.1188 57.1914 76.1188 61.5054C76.1188 63.0756 72.6821 64.3056 68.2948 64.3056C63.9075 64.3056 60.4707 63.0756 60.4707 61.5054C60.4707 57.1914 63.9807 53.6817 68.2951 53.6817ZM68.2951 51.3975C70.8954 51.3975 73.0107 49.2821 73.0107 46.6819C73.0107 44.0819 70.8952 41.9668 68.2951 41.9668C65.695 41.9668 63.5794 44.0819 63.5794 46.6819C63.5794 49.2821 65.6948 51.3975 68.2951 51.3975ZM68.2951 43.4707C70.0661 43.4707 71.5068 44.9112 71.5068 46.6819C71.5068 48.4528 70.0659 49.8936 68.2951 49.8936C66.5242 49.8936 65.0833 48.4528 65.0833 46.6819C65.0833 44.9112 66.5241 43.4707 68.2951 43.4707ZM102.705 51.3975C105.306 51.3975 107.421 49.2821 107.421 46.6819C107.421 44.0819 105.306 41.9668 102.705 41.9668C100.105 41.9668 97.9898 44.0819 97.9898 46.6819C97.9899 49.2821 100.105 51.3975 102.705 51.3975ZM102.705 43.4707C104.476 43.4707 105.917 44.9112 105.917 46.6819C105.917 48.4528 104.476 49.8936 102.705 49.8936C100.934 49.8936 99.4937 48.4528 99.4937 46.6819C99.4938 44.9112 100.935 43.4707 102.705 43.4707Z" fill="#9F6C38" stroke="#9F6C38" stroke-width="0.5"/>
</g>
<defs>
<filter id="filter0_d_78_5654" x="-17" y="0" width="530" height="217" filterUnits="userSpaceOnUse" color-interpolation-filters="sRGB">
<feFlood flood-opacity="0" result="BackgroundImageFix"/>
<feColorMatrix in="SourceAlpha" type="matrix" values="0 0 0 0 0 0 0 0 0 0 0 0 0 0 0 0 0 0 127 0" result="hardAlpha"/>
<feOffset/>
<feGaussianBlur stdDeviation="12"/>
<feComposite in2="hardAlpha" operator="out"/>
<feColorMatrix type="matrix" values="0 0 0 0 0 0 0 0 0 0 0 0 0 0 0 0 0 0 0.05 0"/>
<feBlend mode="normal" in2="BackgroundImageFix" result="effect1_dropShadow_78_5654"/>
<feBlend mode="normal" in="SourceGraphic" in2="effect1_dropShadow_78_5654" result="shape"/>
</filter>
<clipPath id="clip0_78_5654">
<rect width="55" height="55" fill="white" transform="translate(58 41)"/>
</clipPath>
</defs>
</svg>
