<svg width="513" height="193" viewBox="0 0 513 193" fill="none" xmlns="http://www.w3.org/2000/svg">
<path d="M42.1791 11L26 26.6363L52 32L42.1791 11Z" fill="#DFD4BB"/>
<path d="M129.416 11L143 25.3538L111 29L129.416 11Z" fill="#DFD4BB"/>
<g filter="url(#filter0_d_78_5668)">
<path d="M7 168.632V48.3868C7 34.9175 20.1299 24 36.3289 24H422.104C438.303 24 451.433 34.9175 451.433 48.3868V77.2634L489 108.5L451.433 139.737V168.613C451.433 182.083 438.303 193 422.104 193H36.3289C20.1299 193.019 7 182.102 7 168.632Z" fill="white"/>
<path d="M450.933 77.2634V77.4979L451.113 77.6479L488.218 108.5L451.113 139.352L450.933 139.502V139.737V168.613C450.933 181.724 438.117 192.5 422.104 192.5H36.3289H36.3283C20.3157 192.519 7.5 181.743 7.5 168.632V48.3868C7.5 35.276 20.3157 24.5 36.3289 24.5H422.104C438.117 24.5 450.933 35.276 450.933 48.3868V77.2634Z" stroke="#D9D9D9"/>
</g>
<path d="M42 108.423V11H130V108.423C130 118.679 123.214 127 114.851 127H57.1372C48.7738 127 42 118.693 42 108.423Z" fill="#F3EDE0"/>
<g clip-path="url(#clip0_78_5668)">
<mask id="mask0_78_5668" style="mask-type:luminance" maskUnits="userSpaceOnUse" x="58" y="41" width="55" height="56">
<path d="M58 41.0039H113V96.0039H58V41.0039Z" fill="white"/>
</mask>
<g mask="url(#mask0_78_5668)">
<path d="M103.332 49.0605C103.332 48.1707 104.053 47.4492 104.943 47.4492C105.833 47.4492 106.555 48.1707 106.555 49.0605C106.555 49.9504 105.833 50.6719 104.943 50.6719C104.053 50.6719 103.332 49.9504 103.332 49.0605Z" fill="#9F6C38"/>
<path d="M87.1577 62.2871L98.7164 50.7284C98.574 50.1958 98.4981 49.636 98.4981 49.0585C98.4981 45.4989 101.384 42.6132 104.943 42.6132C108.503 42.6132 111.389 45.4989 111.389 49.0585C111.389 52.6183 108.503 55.5038 104.943 55.5038C104.366 55.5038 103.806 55.4279 103.273 55.2854L91.7148 66.8441C92.2836 68.9948 91.729 71.388 90.0509 73.0661C88.3646 74.7524 85.9946 75.2992 83.8298 74.7298L85.4933 73.0661C86.7466 71.8128 86.7466 69.7618 85.4933 68.5087C84.2401 67.2554 82.1892 67.2554 80.9359 68.5087L79.2722 70.1722C78.7027 68.0073 79.2496 65.6373 80.9358 63.9511C82.6139 62.2729 85.0071 61.7183 87.1577 62.2871Z" stroke="#9F6C38" stroke-width="2" stroke-miterlimit="10" stroke-linecap="round" stroke-linejoin="round"/>
<path d="M96.6835 52.7634C94.3589 51.1079 91.6526 49.9538 88.7227 49.4591V42.6152H82.2773V49.4591C79.3468 49.9538 76.6413 51.1023 74.3141 52.7607L69.5485 47.9951L64.9911 52.5525L69.7567 57.3181C68.0981 59.6454 66.9499 62.3508 66.4552 65.2813H59.6113V71.7266H66.4552C66.9499 74.6571 68.0981 77.3626 69.7567 79.6899L64.9911 84.4551L69.5485 89.0128L74.3141 84.2472C76.6413 85.9057 79.3468 87.0541 82.2773 87.5487V94.3926H88.7227V87.5487C91.6531 87.0541 94.3585 85.9057 96.6858 84.2472L101.451 89.0128L106.009 84.4551L101.243 79.6899C102.902 77.3626 104.05 74.6571 104.545 71.7266H111.389V65.2813H104.545C104.05 62.3512 102.896 59.645 101.241 57.3204" stroke="#9F6C38" stroke-width="2" stroke-miterlimit="10" stroke-linecap="round" stroke-linejoin="round"/>
<path d="M96.6022 61.9568C97.7381 63.8765 98.3906 66.1145 98.3906 68.502C98.3906 75.6097 92.6078 81.3926 85.5 81.3926C78.3922 81.3926 72.6094 75.6097 72.6094 68.502C72.6094 61.3942 78.3922 55.6113 85.5 55.6113C87.8876 55.6113 90.1255 56.2638 92.0451 57.3998" stroke="#9F6C38" stroke-width="2" stroke-miterlimit="10" stroke-linecap="round" stroke-linejoin="round"/>
</g>
</g>
<defs>
<filter id="filter0_d_78_5668" x="-17" y="0" width="530" height="217" filterUnits="userSpaceOnUse" color-interpolation-filters="sRGB">
<feFlood flood-opacity="0" result="BackgroundImageFix"/>
<feColorMatrix in="SourceAlpha" type="matrix" values="0 0 0 0 0 0 0 0 0 0 0 0 0 0 0 0 0 0 127 0" result="hardAlpha"/>
<feOffset/>
<feGaussianBlur stdDeviation="12"/>
<feComposite in2="hardAlpha" operator="out"/>
<feColorMatrix type="matrix" values="0 0 0 0 0 0 0 0 0 0 0 0 0 0 0 0 0 0 0.05 0"/>
<feBlend mode="normal" in2="BackgroundImageFix" result="effect1_dropShadow_78_5668"/>
<feBlend mode="normal" in="SourceGraphic" in2="effect1_dropShadow_78_5668" result="shape"/>
</filter>
<clipPath id="clip0_78_5668">
<rect width="55" height="55" fill="white" transform="translate(58 41)"/>
</clipPath>
</defs>
</svg>
