<svg width="47" height="48" viewBox="0 0 47 48" fill="none" xmlns="http://www.w3.org/2000/svg">
<circle cx="23.5" cy="24.375" r="23" stroke="#9F6C38" stroke-dasharray="6 6"/>
<path d="M18.9445 23.3508C20.164 25.7474 22.1286 27.7036 24.5252 28.9316L26.3883 27.0685C26.6169 26.8399 26.9557 26.7636 27.2521 26.8653C28.2005 27.1786 29.2252 27.348 30.2753 27.348C30.7411 27.348 31.1221 27.729 31.1221 28.1948V31.1503C31.1221 31.6161 30.7411 31.9971 30.2753 31.9971C22.3234 31.9971 15.8789 25.5526 15.8789 17.6008C15.8789 17.135 16.26 16.7539 16.7258 16.7539H19.6897C20.1555 16.7539 20.5366 17.135 20.5366 17.6008C20.5366 18.6593 20.7059 19.6755 21.0193 20.624C21.1124 20.9204 21.0447 21.2507 20.8076 21.4878L18.9445 23.3508Z" fill="#9F6C38"/>
</svg>
