<svg width="262" height="262" viewBox="0 0 262 262" fill="none" xmlns="http://www.w3.org/2000/svg">
<g clip-path="url(#clip0_653_6828)">
<g clip-path="url(#clip1_653_6828)">
<path d="M131.5 259C202.192 259 259.5 201.692 259.5 131C259.5 60.3075 202.192 3 131.5 3C60.8075 3 3.5 60.3075 3.5 131C3.5 201.692 60.8075 259 131.5 259Z" stroke="#E2D3B2" stroke-width="6"/>
<path d="M131.5 252C198.326 252 252.5 197.826 252.5 131C252.5 64.1735 198.326 10 131.5 10C64.6735 10 10.5 64.1735 10.5 131C10.5 197.826 64.6735 252 131.5 252Z" fill="white" stroke="#F3EDE0" stroke-width="10"/>
<path fill-rule="evenodd" clip-rule="evenodd" d="M251.971 183.087C252.073 182.85 252.175 182.612 252.276 182.374L247.685 180.393C247.584 180.631 247.482 180.869 247.379 181.107C226.355 229.855 178.219 258.559 128.203 257.194L127.592 262.18C179.762 263.794 230.046 233.924 251.971 183.087Z" fill="#9F6C38"/>
</g>
</g>
<defs>
<clipPath id="clip0_653_6828">
<rect width="262" height="262" fill="white"/>
</clipPath>
<clipPath id="clip1_653_6828">
<rect width="263" height="262" fill="white"/>
</clipPath>
</defs>
</svg>
