<svg width="30" height="30" viewBox="0 0 30 30" fill="none" xmlns="http://www.w3.org/2000/svg">
<g clip-path="url(#clip0_354_6643)">
<path d="M17.864 15.0004C17.864 16.6367 16.6367 17.864 15.0004 17.864C13.364 17.864 12.1367 16.6367 12.1367 15.0004C12.1367 13.364 13.364 12.1367 15.0004 12.1367C16.6367 12.1367 17.864 13.364 17.864 15.0004Z" fill="#9F6C38"/>
<path d="M21.6823 9.95401C21.5459 9.54492 21.2732 9.27219 21.0004 8.99947C20.7277 8.72674 20.3186 8.45401 20.0459 8.31765C19.7732 8.18129 19.2277 8.04492 18.4095 8.04492C17.455 8.04492 17.1823 8.04492 14.8641 8.04492C12.5459 8.04492 12.2732 8.04492 11.3186 8.04492C10.5004 8.04492 9.95499 8.18129 9.68226 8.31765C9.5459 8.45401 9.27317 8.59038 8.86408 8.8631C8.59135 9.27219 8.45499 9.54492 8.31863 9.95401C8.18226 10.2267 8.0459 10.6358 8.0459 11.454C8.0459 12.4086 8.0459 12.6813 8.0459 14.9995C8.0459 17.3176 8.0459 17.5904 8.0459 18.5449C8.0459 19.3631 8.18226 19.9086 8.31863 20.1813C8.45499 20.5904 8.72772 20.8631 9.00044 21.1358C9.27317 21.4086 9.68226 21.6813 9.95499 21.8177C10.2277 21.954 10.7732 22.0904 11.5914 22.0904C12.5459 22.0904 12.8186 22.0904 15.1368 22.0904C17.455 22.0904 17.7277 22.0904 18.6823 22.0904C19.5004 22.0904 20.0459 21.954 20.3186 21.8177C21.1368 21.5449 21.6823 20.9995 21.955 20.1813C22.0914 19.9086 22.2277 19.3631 22.2277 18.5449C22.2277 17.5904 22.2277 17.3176 22.2277 14.9995C22.2277 12.6813 22.2277 12.4086 22.2277 11.454C21.955 10.6358 21.8186 10.2267 21.6823 9.95401ZM15.0004 19.3631C12.5459 19.3631 10.6368 17.3176 10.6368 14.9995C10.6368 12.6813 12.5459 10.6358 15.0004 10.6358C17.455 10.6358 19.3641 12.6813 19.3641 14.9995C19.3641 17.3176 17.455 19.3631 15.0004 19.3631ZM19.6368 11.454C19.0914 11.454 18.5459 11.0449 18.5459 10.3631C18.5459 9.81765 18.955 9.27219 19.6368 9.27219C20.1823 9.27219 20.7277 9.68129 20.7277 10.3631C20.5914 10.9086 20.1823 11.454 19.6368 11.454Z" fill="#9F6C38"/>
<path d="M15 0C6.68182 0 0 6.68182 0 15C0 23.3182 6.68182 30 15 30C23.3182 30 30 23.3182 30 15C30 6.68182 23.3182 0 15 0ZM23.5909 18.5455C23.5909 19.5 23.4545 20.0455 23.1818 20.5909C22.7727 21.6818 21.8182 22.6364 20.7273 23.0455C20.1818 23.3182 19.5 23.4545 18.6818 23.4545C17.7273 23.4545 17.4545 23.4545 15.1364 23.4545C12.8182 23.4545 12.5455 23.4545 11.5909 23.4545C10.6364 23.4545 10.0909 23.3182 9.54545 23.0455C9 22.7727 8.45455 22.5 8.04545 22.0909C7.63636 21.6818 7.22727 21.1364 7.09091 20.5909C6.81818 20.0455 6.68182 19.3636 6.68182 18.5455C6.68182 17.5909 6.68182 17.3182 6.68182 15C6.68182 12.6818 6.68182 12.4091 6.68182 11.4545C6.68182 10.5 6.81818 9.95455 7.09091 9.40909C7.36364 8.86364 7.63636 8.31818 8.04545 7.90909C8.31818 7.36364 8.72727 7.09091 9.40909 6.81818C9.95455 6.54545 10.6364 6.40909 11.4545 6.40909C12.4091 6.40909 12.6818 6.40909 15 6.40909C17.3182 6.40909 17.5909 6.40909 18.5455 6.40909C19.5 6.40909 20.0455 6.54545 20.5909 6.81818C21.1364 7.09091 21.6818 7.36364 22.0909 7.77273C22.5 8.18182 22.9091 8.72727 23.0455 9.27273C23.3182 9.81818 23.4545 10.5 23.4545 11.3182C23.4545 12.2727 23.4545 12.5455 23.4545 14.8636C23.5909 17.3182 23.5909 17.5909 23.5909 18.5455Z" fill="#9F6C38"/>
</g>
<defs>
<clipPath id="clip0_354_6643">
<rect width="30" height="30" fill="white"/>
</clipPath>
</defs>
</svg>
