<svg width="7" height="188" viewBox="0 0 7 188" fill="none" xmlns="http://www.w3.org/2000/svg">
<line x1="3.24609" y1="-1.34475e-07" x2="3.2461" y2="187.662" stroke="#D9C4AF" stroke-width="6"/>
</svg>
