<svg width="323" height="9" viewBox="0 0 323 9" fill="none" xmlns="http://www.w3.org/2000/svg">
<line y1="-3" x2="322.113" y2="-3" transform="matrix(-0.99998 -0.0063672 0.00637142 -0.99998 322.99 2.56055)" stroke="#D9C4AF" stroke-width="6"/>
</svg>
