<svg width="114" height="77" viewBox="0 0 114 77" fill="none" xmlns="http://www.w3.org/2000/svg">
<path d="M82.7399 8.44979C82.7399 3.78754 78.9209 0 74.2391 0H40.2532C35.5628 0 31.7524 3.78754 31.7524 8.44979C31.7524 13.112 35.5628 16.8996 40.2532 16.8996H54.6233C51.0265 19.9993 48.7539 24.5681 48.7539 29.6549C48.7539 38.9709 56.3747 46.546 65.7469 46.546C70.8645 46.546 75.4608 44.2786 78.5792 40.7119V46.546H82.7399V29.6549C82.7399 20.3389 75.1191 12.7639 65.7469 12.7639H47.5493C48.3097 11.4985 48.7539 10.0293 48.7539 8.44979C48.7539 6.87023 48.3097 5.40107 47.5493 4.13573H66.943H74.2391C76.6313 4.13573 78.5792 6.07196 78.5792 8.44979H82.7399ZM78.5792 29.6549C78.5792 36.6865 72.8209 42.4103 65.7384 42.4103C58.6558 42.4103 52.9061 36.6865 52.9061 29.6549C52.9061 22.6234 58.6644 16.8911 65.7384 16.8911C72.8124 16.8911 78.5792 22.6149 78.5792 29.6549ZM44.5933 8.44979C44.5933 10.8276 42.6454 12.7639 40.2532 12.7639C37.861 12.7639 35.9217 10.8276 35.9217 8.44979C35.9217 6.07196 37.8696 4.13573 40.2617 4.13573C42.6539 4.13573 44.5933 6.06347 44.5933 8.44979Z" fill="#9F6C38"/>
<path d="M40.2532 42.4103C37.861 42.4103 35.9131 40.4741 35.9131 38.0963V30.8439V29.6465H31.7524V38.0878C31.7524 42.7415 35.5628 46.5376 40.2532 46.5376H48.7454V42.4018H47.5408H40.2532V42.4103Z" fill="#9F6C38"/>
<path d="M114 60.0898H109.813V76.8026H114V60.0898Z" fill="#9F6C38"/>
<path d="M8.90678 55.9126C11.0085 55.9126 13.1102 56.9571 13.1102 59.0462H17.3136C17.3136 55.9126 15.2119 51.7344 8.90678 51.7344C2.60169 51.7344 0.5 55.9126 0.5 59.0462C0.5 68.4471 13.1102 64.2689 13.1102 69.4917C13.1102 71.5808 11.0085 72.6253 8.90678 72.6253C6.80508 72.6253 4.70339 71.5808 4.70339 69.4917H0.5C0.5 72.6253 2.60169 76.8035 8.90678 76.8035C15.2119 76.8035 17.3136 72.6253 17.3136 69.4917C17.3136 60.0908 4.70339 64.2689 4.70339 59.0462C4.70339 56.8807 6.80508 55.9126 8.90678 55.9126Z" fill="#3F3B3B"/>
<path d="M71.9576 60.0898C70.2659 60.0898 68.8819 60.3956 67.7542 60.8966V60.0898H63.5508V67.4017V76.8026H67.7542V67.4017C67.7542 65.3126 69.8559 64.268 71.9576 64.268C74.0592 64.268 76.1609 65.3126 76.1609 67.4017V71.7072V76.8026H80.3045H80.3643V67.4017C80.3643 64.268 78.2626 60.0898 71.9576 60.0898Z" fill="#3F3B3B"/>
<path d="M29.9239 60.0908C28.2323 60.0908 26.8482 60.3965 25.7205 60.8975V51.7344H21.5171V67.4026V76.8035H25.7205V73.5425V67.4026C25.7205 65.3135 27.8222 64.2689 29.9239 64.2689C32.0256 64.2689 34.1273 65.3135 34.1273 67.4026V71.7082V76.8035H38.2708H38.3306V67.4026C38.3306 64.2689 36.2289 60.0908 29.9239 60.0908Z" fill="#3F3B3B"/>
<path d="M105.585 60.0898C100.937 60.0898 97.1777 63.8264 97.1777 68.4462C97.1777 73.066 100.937 76.8026 105.585 76.8026C107.122 76.8026 108.566 76.3865 109.805 75.6646V76.8026H113.991V68.4462C113.991 63.8264 110.232 60.0898 105.585 60.0898ZM105.585 72.6414C103.252 72.6414 101.364 70.7646 101.364 68.4462C101.364 66.1278 103.252 64.251 105.585 64.251C107.917 64.251 109.805 66.1278 109.805 68.4462C109.814 70.7646 107.917 72.6414 105.585 72.6414Z" fill="#3F3B3B"/>
<path d="M86.6696 59.0462V60.0568H84.5679V64.2435H86.6696V64.2604V68.4471V69.4832V76.795H90.873V75.9883V69.4832V64.2435H95.0763V60.0568H90.873V59.0462C90.873 56.8807 92.9746 55.9126 95.0763 55.9126V51.7344C88.7713 51.7344 86.6696 55.9126 86.6696 59.0462Z" fill="#3F3B3B"/>
<path d="M55.1443 63.3509V69.4908C55.1443 71.5799 53.0427 72.6244 50.941 72.6244C48.8393 72.6244 46.7376 71.5799 46.7376 69.4908V65.1852V60.0898H42.594H42.5342V69.4908C42.5342 72.6244 44.6359 76.8026 50.941 76.8026C52.6326 76.8026 54.0166 76.4969 55.1443 75.9958V76.8026H59.3477V69.4908V60.0898H55.1443V63.3509Z" fill="#3F3B3B"/>
</svg>
