<svg width="482" height="182" viewBox="0 0 482 182" fill="none" xmlns="http://www.w3.org/2000/svg">
<path d="M446.821 0L463 15.6363L437 21L446.821 0Z" fill="#DFD4BB"/>
<path d="M359.584 0L346 14.3538L378 18L359.584 0Z" fill="#DFD4BB"/>
<path d="M38.0668 66.2634V66.4979L37.8865 66.6479L0.782043 97.5L37.8865 128.352L38.0668 128.502V128.737V157.613C38.0668 170.724 50.8826 181.5 66.8958 181.5H452.671H452.672C468.684 181.519 481.5 170.743 481.5 157.632V37.3868C481.5 24.276 468.684 13.5 452.671 13.5H66.8958C50.8826 13.5 38.0668 24.276 38.0668 37.3868V66.2634Z" fill="white" stroke="#D9D9D9"/>
<path d="M447 97.4231V0H359V97.4231C359 107.679 365.786 116 374.149 116H431.863C440.226 116 447 107.693 447 97.4231Z" fill="#F3EDE0"/>
<g clip-path="url(#clip0_665_6861)">
<mask id="mask0_665_6861" style="mask-type:luminance" maskUnits="userSpaceOnUse" x="375" y="27" width="55" height="55">
<path d="M375 27H430V82H375V27Z" fill="white"/>
</mask>
<g mask="url(#mask0_665_6861)">
<path d="M391.964 70.6433H377.111V80.3887H391.964V70.6433Z" stroke="#9F6C38" stroke-width="2" stroke-miterlimit="10" stroke-linecap="round" stroke-linejoin="round"/>
<path d="M406.815 61.6197H391.963V80.3887H406.815V61.6197Z" stroke="#9F6C38" stroke-width="2" stroke-miterlimit="10" stroke-linecap="round" stroke-linejoin="round"/>
<path d="M421.94 49.0215H406.814V80.3887H421.94V49.0215Z" stroke="#9F6C38" stroke-width="2" stroke-miterlimit="10" stroke-linecap="round" stroke-linejoin="round"/>
<path d="M428.389 40.0332H414.242V31.0861H428.389L424.092 35.7498L428.389 40.0332Z" stroke="#9F6C38" stroke-width="2" stroke-miterlimit="10" stroke-linecap="round" stroke-linejoin="round"/>
<path d="M414.242 28.6113V49.0215" stroke="#9F6C38" stroke-width="2" stroke-miterlimit="10" stroke-linecap="round" stroke-linejoin="round"/>
<path d="M376.611 59.3086C381.935 57.0569 386.921 53.7627 391.258 49.426C395.596 45.0879 398.89 40.1019 401.14 34.7796L403.788 40.1184" stroke="#9F6C38" stroke-width="2" stroke-miterlimit="10" stroke-linecap="round" stroke-linejoin="round"/>
<path d="M401.139 34.7802L395.408 35.9863" stroke="#9F6C38" stroke-width="2" stroke-miterlimit="10" stroke-linecap="round" stroke-linejoin="round"/>
</g>
</g>
<defs>
<clipPath id="clip0_665_6861">
<rect width="55" height="55" fill="white" transform="translate(375 27)"/>
</clipPath>
</defs>
</svg>
